%YAML 1.1
%TAG !u! tag:unity3d.com,2011:
--- !u!74 &7400000
AnimationClip:
  m_ObjectHideFlags: 0
  m_PrefabParentObject: {fileID: 0}
  m_PrefabInternal: {fileID: 0}
  m_Name: BustahHit
  serializedVersion: 6
  m_Legacy: 0
  m_Compressed: 0
  m_UseHighQualityCurve: 1
  m_RotationCurves: []
  m_CompressedRotationCurves: []
  m_EulerCurves: []
  m_PositionCurves: []
  m_ScaleCurves: []
  m_FloatCurves: []
  m_PPtrCurves:
  - curve:
    - time: 0
      value: {fileID: 21300000, guid: aa274e57227f80c4aa1c9d3679c1f53e, type: 3}
    - time: 0.041666668
      value: {fileID: 21300000, guid: e6bcedbee46da064f932306d0e632339, type: 3}
    - time: 0.083333336
      value: {fileID: 21300000, guid: 0e12ce25124a2594697b425b9e751e0a, type: 3}
    - time: 0.125
      value: {fileID: 21300000, guid: d9faa3d36f7cd904289e303bba1a52e6, type: 3}
    - time: 0.16666667
      value: {fileID: 21300000, guid: e62a168bd406971478c2fd99b84bbb1f, type: 3}
    - time: 0.20833333
      value: {fileID: 21300000, guid: 5bdc0c00603e1c643bf6e84c070807f5, type: 3}
    - time: 0.25
      value: {fileID: 21300000, guid: 6b5e4b148984b8d4fb0ed97a51fa43c8, type: 3}
    - time: 0.29166666
      value: {fileID: 21300000, guid: d00ed99ab3102ac468063899146cd13d, type: 3}
    - time: 0.33333334
      value: {fileID: 21300000, guid: 0d422b9a31d84a34c8bb22c961724515, type: 3}
    - time: 0.375
      value: {fileID: 21300000, guid: 0a5155988cecb8743b242869a0b77ac1, type: 3}
    - time: 0.41666666
      value: {fileID: 21300000, guid: 967ae326d791fa04eb81546533a1c6d6, type: 3}
    - time: 0.45833334
      value: {fileID: 21300000, guid: d5a42ac812fe9534aa9d0d6f3b64fb0b, type: 3}
    - time: 0.5
      value: {fileID: 21300000, guid: 8d39102018f3ec745827fae366e56e3f, type: 3}
    - time: 0.5416667
      value: {fileID: 21300000, guid: dbb9b20834f04e045a40e7c38659ce64, type: 3}
    - time: 0.5833333
      value: {fileID: 21300000, guid: 539717d9942fe024a9108898b4d4f8f5, type: 3}
    - time: 0.625
      value: {fileID: 21300000, guid: 0e90f22ca39bb5c468574d9a68cd4e7e, type: 3}
    - time: 0.6666667
      value: {fileID: 21300000, guid: 326c4c0b1f93ef6439483bf37fa99f9a, type: 3}
    - time: 0.7083333
      value: {fileID: 21300000, guid: 403e5225509adf9479d6bbd45649cf23, type: 3}
    - time: 0.75
      value: {fileID: 21300000, guid: 93a551730cb52a54587f8dc66a4dfae6, type: 3}
    - time: 0.7916667
      value: {fileID: 21300000, guid: 4d3b9f7e1f2d073459886a3ca1436c28, type: 3}
    - time: 0.8333333
      value: {fileID: 21300000, guid: c7dbee2efa548fb4882c1357af32a85e, type: 3}
    - time: 0.875
      value: {fileID: 21300000, guid: 8e6b36f413170a946b1df832bb3617cf, type: 3}
    - time: 0.9166667
      value: {fileID: 21300000, guid: 4899a61a03c98a54d80a694ed5468086, type: 3}
    - time: 0.9583333
      value: {fileID: 21300000, guid: cac2df23c38575548bb9631064a8bf8f, type: 3}
    - time: 1
      value: {fileID: 21300000, guid: d7c68621c645d574384a7888e375f237, type: 3}
    - time: 1.0416666
      value: {fileID: 21300000, guid: bcdbb46936cd3d04a8349c437f87a795, type: 3}
    - time: 1.0833334
      value: {fileID: 21300000, guid: 87882f6448fc2ea48870cc9abda68b57, type: 3}
    - time: 1.125
      value: {fileID: 21300000, guid: ac684f2c5ca2cdf4e8a09f3617b14d7e, type: 3}
    - time: 1.1666666
      value: {fileID: 21300000, guid: 9a974a18cb9a3ee4cac5b9a33bcdc563, type: 3}
    - time: 1.2083334
      value: {fileID: 21300000, guid: 13fff3a6720fa624b9698cc1c9e76a74, type: 3}
    - time: 1.25
      value: {fileID: 21300000, guid: 29c40b909601577498297776cd10f322, type: 3}
    - time: 1.2916666
      value: {fileID: 21300000, guid: ab218aa55452ab84b975a72d88cc4357, type: 3}
    - time: 1.3333334
      value: {fileID: 21300000, guid: 04b6466f6a8e7134b85f08284a9c0eb0, type: 3}
    - time: 1.375
      value: {fileID: 21300000, guid: 7b59aafa4700030419e78dfcf9e06b88, type: 3}
    - time: 1.4166666
      value: {fileID: 21300000, guid: 715064ec5a0fce44583f4951d97b5fed, type: 3}
    - time: 1.4583334
      value: {fileID: 21300000, guid: 0e6c771442a37d04e91ed565f8ab29f9, type: 3}
    - time: 1.5
      value: {fileID: 21300000, guid: 2d1fe2303fbd81342805588142d826e9, type: 3}
    - time: 1.5416666
      value: {fileID: 21300000, guid: 108882a36deb06d42a15a0ab30627ed6, type: 3}
    - time: 1.5833334
      value: {fileID: 21300000, guid: b1acaef0044f2244fb018e72aeb1f80a, type: 3}
    - time: 1.625
      value: {fileID: 21300000, guid: e000d1666bef83b468f76bfe9b3c19a5, type: 3}
    - time: 1.6666666
      value: {fileID: 21300000, guid: be7a7d7215e239e4ca14cc6ee37cd2c2, type: 3}
    - time: 1.7083334
      value: {fileID: 21300000, guid: 650913feaa7e3ad48be57c4bc31d65f1, type: 3}
    - time: 1.75
      value: {fileID: 21300000, guid: 6bc1b45cde90dc24d8cda59a797f8a9a, type: 3}
    - time: 1.7916666
      value: {fileID: 21300000, guid: 11cfd17f19f3b394b80b2e6d370fb99a, type: 3}
    - time: 1.8333334
      value: {fileID: 21300000, guid: 1c63f723fb9e1f044935da85e9d5ec2a, type: 3}
    - time: 1.875
      value: {fileID: 21300000, guid: f123fb9cf8286a04fa9700f1ac6851c5, type: 3}
    - time: 1.9166666
      value: {fileID: 21300000, guid: b79cf4664200da340a7a08deea1d626b, type: 3}
    - time: 1.9583334
      value: {fileID: 21300000, guid: fa838d022d5b81642886501601b79564, type: 3}
    - time: 2
      value: {fileID: 21300000, guid: 9f8306f6225e5fa46a510c9d18562362, type: 3}
    - time: 2.0416667
      value: {fileID: 21300000, guid: 24165fc8d1712dc4a885f1a860209f4b, type: 3}
    - time: 2.0833333
      value: {fileID: 21300000, guid: af67eec61a4fe324ab73f97352c43f5d, type: 3}
    - time: 2.125
      value: {fileID: 21300000, guid: 36d0fd9e8f28bde41a0a4a9f835ad7d6, type: 3}
    - time: 2.1666667
      value: {fileID: 21300000, guid: 5cd2dbf0461d7104b857610cb92ebce2, type: 3}
    - time: 2.2083333
      value: {fileID: 21300000, guid: c5645383f2e551c478452867be914c4c, type: 3}
    - time: 2.25
      value: {fileID: 21300000, guid: 3caa7ad839057ad438b6d9aacb83c18c, type: 3}
    - time: 2.2916667
      value: {fileID: 21300000, guid: f0e95c104ffcb274ab5d6c2222cb1617, type: 3}
    - time: 2.3333333
      value: {fileID: 21300000, guid: 92a833553a445ce42ba6decb06de7804, type: 3}
    - time: 2.375
      value: {fileID: 21300000, guid: 878eb19baa60f7b4a97ec5487c334a4a, type: 3}
    - time: 2.4166667
      value: {fileID: 21300000, guid: a5ea77d6ec7e07143b5ca519cde6aee3, type: 3}
    - time: 2.4583333
      value: {fileID: 21300000, guid: d18b7c02881ca8946a8d9fc11da3d2ef, type: 3}
    - time: 2.5
      value: {fileID: 21300000, guid: bfb2e7d68e702a64e82fa17bdb6ad48b, type: 3}
    - time: 2.5416667
      value: {fileID: 21300000, guid: 9e9eb7ae5a3855a49ad1e13fb6234497, type: 3}
    - time: 2.5833333
      value: {fileID: 21300000, guid: 897d8995bcdd737408dbf34d7ffdb42f, type: 3}
    - time: 2.625
      value: {fileID: 21300000, guid: 61fcb9e5d317b2b4ba07681a7d9d90c7, type: 3}
    - time: 2.6666667
      value: {fileID: 21300000, guid: cfd2f254915c3d7498833e06e583a707, type: 3}
    - time: 2.7083333
      value: {fileID: 21300000, guid: 31fe2491776867840a9789032d6e2fe8, type: 3}
    - time: 2.75
      value: {fileID: 21300000, guid: 1e198a7477587d34ebf7b6b0af93f1f1, type: 3}
    - time: 2.7916667
      value: {fileID: 21300000, guid: accc275e4a9e97a40b510ed86375252b, type: 3}
    - time: 2.8333333
      value: {fileID: 21300000, guid: feec0d89535b6fb4a866619519cb8b2c, type: 3}
    - time: 2.875
      value: {fileID: 21300000, guid: abae14d257ea2aa4c8d154ce540bbf3d, type: 3}
    - time: 2.9166667
      value: {fileID: 21300000, guid: 64132f9ce50e8f54c879be507ed5ebfb, type: 3}
    - time: 2.9583333
      value: {fileID: 21300000, guid: da98329081a01bd4c8844a621500ab0f, type: 3}
    - time: 3
      value: {fileID: 21300000, guid: 3a985ad2179079d40b50e99fad6e9a42, type: 3}
    - time: 3.0416667
      value: {fileID: 21300000, guid: a04034f5c423032499487970de7ddfee, type: 3}
    - time: 3.0833333
      value: {fileID: 21300000, guid: 52d3aab9101dac646bbd3b7c5514fefe, type: 3}
    - time: 3.125
      value: {fileID: 21300000, guid: 4dcfff04ff0c55742a90ab9d2e6eb9b8, type: 3}
    - time: 3.1666667
      value: {fileID: 21300000, guid: 442d65dce01e7e240acbe52e4e51241d, type: 3}
    - time: 3.2083333
      value: {fileID: 21300000, guid: 19a98ac0c03a803439763afed8d589bb, type: 3}
    - time: 3.25
      value: {fileID: 21300000, guid: 6a1a438a323fe974181e24d0b3cd718c, type: 3}
    - time: 3.2916667
      value: {fileID: 21300000, guid: d6032eb27f59a00459b3f06371ffbd1f, type: 3}
    - time: 3.3333333
      value: {fileID: 21300000, guid: 2574a97865759a4418a11623ba359549, type: 3}
    - time: 3.375
      value: {fileID: 21300000, guid: c05cddb2623dcb14d9b6de71711efd64, type: 3}
    - time: 3.4166667
      value: {fileID: 21300000, guid: 005c1d34f275e6c4389c5e34fc302b9a, type: 3}
    - time: 3.4583333
      value: {fileID: 21300000, guid: 64f9c8e62ef90624f8c9afd5e1799c63, type: 3}
    - time: 3.5
      value: {fileID: 21300000, guid: de751e3c9f72f44479b97c64bc1c5ec2, type: 3}
    - time: 3.5416667
      value: {fileID: 21300000, guid: 01ced4f039b9960458e301d46b31df99, type: 3}
    - time: 3.5833333
      value: {fileID: 21300000, guid: f39b8dc492096e34ebc6f064be482d5d, type: 3}
    - time: 3.625
      value: {fileID: 21300000, guid: 5d6132bf3beee5140ba553118f0f2f0a, type: 3}
    - time: 3.6666667
      value: {fileID: 21300000, guid: 823918800feab3942b2274c833f6eccf, type: 3}
    - time: 3.7083333
      value: {fileID: 21300000, guid: 7c4032f910a432248a4634de5571c21a, type: 3}
    - time: 3.75
      value: {fileID: 21300000, guid: 71e25bcfbed480f4cb5be36353c8d9de, type: 3}
    - time: 3.7916667
      value: {fileID: 21300000, guid: 9f1749e944c477b42902485e4848ef12, type: 3}
    - time: 3.8333333
      value: {fileID: 21300000, guid: d6a71eac5b3f9c94b830921ba7c698c9, type: 3}
    - time: 3.875
      value: {fileID: 21300000, guid: 73091f640105a0448a172e4621e663f5, type: 3}
    - time: 3.9166667
      value: {fileID: 21300000, guid: a38f1ae07bdc49b45ba93c62dc378cfb, type: 3}
    attribute: m_Sprite
    path: 
    classID: 212
    script: {fileID: 0}
  m_SampleRate: 24
  m_WrapMode: 0
  m_Bounds:
    m_Center: {x: 0, y: 0, z: 0}
    m_Extent: {x: 0, y: 0, z: 0}
  m_ClipBindingConstant:
    genericBindings:
    - path: 0
      attribute: 0
      script: {fileID: 0}
      classID: 212
      customType: 23
      isPPtrCurve: 1
    pptrCurveMapping:
    - {fileID: 21300000, guid: aa274e57227f80c4aa1c9d3679c1f53e, type: 3}
    - {fileID: 21300000, guid: e6bcedbee46da064f932306d0e632339, type: 3}
    - {fileID: 21300000, guid: 0e12ce25124a2594697b425b9e751e0a, type: 3}
    - {fileID: 21300000, guid: d9faa3d36f7cd904289e303bba1a52e6, type: 3}
    - {fileID: 21300000, guid: e62a168bd406971478c2fd99b84bbb1f, type: 3}
    - {fileID: 21300000, guid: 5bdc0c00603e1c643bf6e84c070807f5, type: 3}
    - {fileID: 21300000, guid: 6b5e4b148984b8d4fb0ed97a51fa43c8, type: 3}
    - {fileID: 21300000, guid: d00ed99ab3102ac468063899146cd13d, type: 3}
    - {fileID: 21300000, guid: 0d422b9a31d84a34c8bb22c961724515, type: 3}
    - {fileID: 21300000, guid: 0a5155988cecb8743b242869a0b77ac1, type: 3}
    - {fileID: 21300000, guid: 967ae326d791fa04eb81546533a1c6d6, type: 3}
    - {fileID: 21300000, guid: d5a42ac812fe9534aa9d0d6f3b64fb0b, type: 3}
    - {fileID: 21300000, guid: 8d39102018f3ec745827fae366e56e3f, type: 3}
    - {fileID: 21300000, guid: dbb9b20834f04e045a40e7c38659ce64, type: 3}
    - {fileID: 21300000, guid: 539717d9942fe024a9108898b4d4f8f5, type: 3}
    - {fileID: 21300000, guid: 0e90f22ca39bb5c468574d9a68cd4e7e, type: 3}
    - {fileID: 21300000, guid: 326c4c0b1f93ef6439483bf37fa99f9a, type: 3}
    - {fileID: 21300000, guid: 403e5225509adf9479d6bbd45649cf23, type: 3}
    - {fileID: 21300000, guid: 93a551730cb52a54587f8dc66a4dfae6, type: 3}
    - {fileID: 21300000, guid: 4d3b9f7e1f2d073459886a3ca1436c28, type: 3}
    - {fileID: 21300000, guid: c7dbee2efa548fb4882c1357af32a85e, type: 3}
    - {fileID: 21300000, guid: 8e6b36f413170a946b1df832bb3617cf, type: 3}
    - {fileID: 21300000, guid: 4899a61a03c98a54d80a694ed5468086, type: 3}
    - {fileID: 21300000, guid: cac2df23c38575548bb9631064a8bf8f, type: 3}
    - {fileID: 21300000, guid: d7c68621c645d574384a7888e375f237, type: 3}
    - {fileID: 21300000, guid: bcdbb46936cd3d04a8349c437f87a795, type: 3}
    - {fileID: 21300000, guid: 87882f6448fc2ea48870cc9abda68b57, type: 3}
    - {fileID: 21300000, guid: ac684f2c5ca2cdf4e8a09f3617b14d7e, type: 3}
    - {fileID: 21300000, guid: 9a974a18cb9a3ee4cac5b9a33bcdc563, type: 3}
    - {fileID: 21300000, guid: 13fff3a6720fa624b9698cc1c9e76a74, type: 3}
    - {fileID: 21300000, guid: 29c40b909601577498297776cd10f322, type: 3}
    - {fileID: 21300000, guid: ab218aa55452ab84b975a72d88cc4357, type: 3}
    - {fileID: 21300000, guid: 04b6466f6a8e7134b85f08284a9c0eb0, type: 3}
    - {fileID: 21300000, guid: 7b59aafa4700030419e78dfcf9e06b88, type: 3}
    - {fileID: 21300000, guid: 715064ec5a0fce44583f4951d97b5fed, type: 3}
    - {fileID: 21300000, guid: 0e6c771442a37d04e91ed565f8ab29f9, type: 3}
    - {fileID: 21300000, guid: 2d1fe2303fbd81342805588142d826e9, type: 3}
    - {fileID: 21300000, guid: 108882a36deb06d42a15a0ab30627ed6, type: 3}
    - {fileID: 21300000, guid: b1acaef0044f2244fb018e72aeb1f80a, type: 3}
    - {fileID: 21300000, guid: e000d1666bef83b468f76bfe9b3c19a5, type: 3}
    - {fileID: 21300000, guid: be7a7d7215e239e4ca14cc6ee37cd2c2, type: 3}
    - {fileID: 21300000, guid: 650913feaa7e3ad48be57c4bc31d65f1, type: 3}
    - {fileID: 21300000, guid: 6bc1b45cde90dc24d8cda59a797f8a9a, type: 3}
    - {fileID: 21300000, guid: 11cfd17f19f3b394b80b2e6d370fb99a, type: 3}
    - {fileID: 21300000, guid: 1c63f723fb9e1f044935da85e9d5ec2a, type: 3}
    - {fileID: 21300000, guid: f123fb9cf8286a04fa9700f1ac6851c5, type: 3}
    - {fileID: 21300000, guid: b79cf4664200da340a7a08deea1d626b, type: 3}
    - {fileID: 21300000, guid: fa838d022d5b81642886501601b79564, type: 3}
    - {fileID: 21300000, guid: 9f8306f6225e5fa46a510c9d18562362, type: 3}
    - {fileID: 21300000, guid: 24165fc8d1712dc4a885f1a860209f4b, type: 3}
    - {fileID: 21300000, guid: af67eec61a4fe324ab73f97352c43f5d, type: 3}
    - {fileID: 21300000, guid: 36d0fd9e8f28bde41a0a4a9f835ad7d6, type: 3}
    - {fileID: 21300000, guid: 5cd2dbf0461d7104b857610cb92ebce2, type: 3}
    - {fileID: 21300000, guid: c5645383f2e551c478452867be914c4c, type: 3}
    - {fileID: 21300000, guid: 3caa7ad839057ad438b6d9aacb83c18c, type: 3}
    - {fileID: 21300000, guid: f0e95c104ffcb274ab5d6c2222cb1617, type: 3}
    - {fileID: 21300000, guid: 92a833553a445ce42ba6decb06de7804, type: 3}
    - {fileID: 21300000, guid: 878eb19baa60f7b4a97ec5487c334a4a, type: 3}
    - {fileID: 21300000, guid: a5ea77d6ec7e07143b5ca519cde6aee3, type: 3}
    - {fileID: 21300000, guid: d18b7c02881ca8946a8d9fc11da3d2ef, type: 3}
    - {fileID: 21300000, guid: bfb2e7d68e702a64e82fa17bdb6ad48b, type: 3}
    - {fileID: 21300000, guid: 9e9eb7ae5a3855a49ad1e13fb6234497, type: 3}
    - {fileID: 21300000, guid: 897d8995bcdd737408dbf34d7ffdb42f, type: 3}
    - {fileID: 21300000, guid: 61fcb9e5d317b2b4ba07681a7d9d90c7, type: 3}
    - {fileID: 21300000, guid: cfd2f254915c3d7498833e06e583a707, type: 3}
    - {fileID: 21300000, guid: 31fe2491776867840a9789032d6e2fe8, type: 3}
    - {fileID: 21300000, guid: 1e198a7477587d34ebf7b6b0af93f1f1, type: 3}
    - {fileID: 21300000, guid: accc275e4a9e97a40b510ed86375252b, type: 3}
    - {fileID: 21300000, guid: feec0d89535b6fb4a866619519cb8b2c, type: 3}
    - {fileID: 21300000, guid: abae14d257ea2aa4c8d154ce540bbf3d, type: 3}
    - {fileID: 21300000, guid: 64132f9ce50e8f54c879be507ed5ebfb, type: 3}
    - {fileID: 21300000, guid: da98329081a01bd4c8844a621500ab0f, type: 3}
    - {fileID: 21300000, guid: 3a985ad2179079d40b50e99fad6e9a42, type: 3}
    - {fileID: 21300000, guid: a04034f5c423032499487970de7ddfee, type: 3}
    - {fileID: 21300000, guid: 52d3aab9101dac646bbd3b7c5514fefe, type: 3}
    - {fileID: 21300000, guid: 4dcfff04ff0c55742a90ab9d2e6eb9b8, type: 3}
    - {fileID: 21300000, guid: 442d65dce01e7e240acbe52e4e51241d, type: 3}
    - {fileID: 21300000, guid: 19a98ac0c03a803439763afed8d589bb, type: 3}
    - {fileID: 21300000, guid: 6a1a438a323fe974181e24d0b3cd718c, type: 3}
    - {fileID: 21300000, guid: d6032eb27f59a00459b3f06371ffbd1f, type: 3}
    - {fileID: 21300000, guid: 2574a97865759a4418a11623ba359549, type: 3}
    - {fileID: 21300000, guid: c05cddb2623dcb14d9b6de71711efd64, type: 3}
    - {fileID: 21300000, guid: 005c1d34f275e6c4389c5e34fc302b9a, type: 3}
    - {fileID: 21300000, guid: 64f9c8e62ef90624f8c9afd5e1799c63, type: 3}
    - {fileID: 21300000, guid: de751e3c9f72f44479b97c64bc1c5ec2, type: 3}
    - {fileID: 21300000, guid: 01ced4f039b9960458e301d46b31df99, type: 3}
    - {fileID: 21300000, guid: f39b8dc492096e34ebc6f064be482d5d, type: 3}
    - {fileID: 21300000, guid: 5d6132bf3beee5140ba553118f0f2f0a, type: 3}
    - {fileID: 21300000, guid: 823918800feab3942b2274c833f6eccf, type: 3}
    - {fileID: 21300000, guid: 7c4032f910a432248a4634de5571c21a, type: 3}
    - {fileID: 21300000, guid: 71e25bcfbed480f4cb5be36353c8d9de, type: 3}
    - {fileID: 21300000, guid: 9f1749e944c477b42902485e4848ef12, type: 3}
    - {fileID: 21300000, guid: d6a71eac5b3f9c94b830921ba7c698c9, type: 3}
    - {fileID: 21300000, guid: 73091f640105a0448a172e4621e663f5, type: 3}
    - {fileID: 21300000, guid: a38f1ae07bdc49b45ba93c62dc378cfb, type: 3}
  m_AnimationClipSettings:
    serializedVersion: 2
    m_AdditiveReferencePoseClip: {fileID: 0}
    m_AdditiveReferencePoseTime: 0
    m_StartTime: 0
    m_StopTime: 3.9583335
    m_OrientationOffsetY: 0
    m_Level: 0
    m_CycleOffset: 0
    m_HasAdditiveReferencePose: 0
    m_LoopTime: 1
    m_LoopBlend: 0
    m_LoopBlendOrientation: 0
    m_LoopBlendPositionY: 0
    m_LoopBlendPositionXZ: 0
    m_KeepOriginalOrientation: 0
    m_KeepOriginalPositionY: 1
    m_KeepOriginalPositionXZ: 0
    m_HeightFromFeet: 0
    m_Mirror: 0
  m_EditorCurves: []
  m_EulerEditorCurves: []
  m_HasGenericRootTransform: 0
  m_HasMotionFloatCurves: 0
  m_GenerateMotionCurves: 0
  m_Events: []
