%YAML 1.1
%TAG !u! tag:unity3d.com,2011:
--- !u!74 &7400000
AnimationClip:
  m_ObjectHideFlags: 0
  m_PrefabParentObject: {fileID: 0}
  m_PrefabInternal: {fileID: 0}
  m_Name: Crouching Heavy
  serializedVersion: 6
  m_Legacy: 0
  m_Compressed: 0
  m_UseHighQualityCurve: 1
  m_RotationCurves: []
  m_CompressedRotationCurves: []
  m_EulerCurves: []
  m_PositionCurves: []
  m_ScaleCurves: []
  m_FloatCurves:
  - curve:
      serializedVersion: 2
      m_Curve:
      - time: 0
        value: 0
        inSlope: Infinity
        outSlope: Infinity
        tangentMode: 31
      - time: 0.1
        value: 1
        inSlope: Infinity
        outSlope: Infinity
        tangentMode: 31
      - time: 0.18333334
        value: 0
        inSlope: Infinity
        outSlope: Infinity
        tangentMode: 31
      - time: 0.26666668
        value: 0
        inSlope: Infinity
        outSlope: Infinity
        tangentMode: 31
      - time: 0.45
        value: 0
        inSlope: Infinity
        outSlope: Infinity
        tangentMode: 31
      m_PreInfinity: 2
      m_PostInfinity: 2
      m_RotationOrder: 4
    attribute: m_Enabled
    path: Hitboxes/Box1
    classID: 61
    script: {fileID: 0}
  - curve:
      serializedVersion: 2
      m_Curve:
      - time: 0
        value: 0.0001
        inSlope: 19.998999
        outSlope: 19.998999
        tangentMode: 10
      - time: 0.1
        value: 2
        inSlope: 19.998999
        outSlope: 19.998999
        tangentMode: 10
      m_PreInfinity: 2
      m_PostInfinity: 2
      m_RotationOrder: 4
    attribute: m_Size.y
    path: Hitboxes/Box1
    classID: 61
    script: {fileID: 0}
  - curve:
      serializedVersion: 2
      m_Curve:
      - time: 0
        value: 0.0001
        inSlope: 37.099
        outSlope: 37.099
        tangentMode: 10
      - time: 0.1
        value: 3.71
        inSlope: 37.099
        outSlope: 37.099
        tangentMode: 10
      m_PreInfinity: 2
      m_PostInfinity: 2
      m_RotationOrder: 4
    attribute: m_Size.x
    path: Hitboxes/Box1
    classID: 61
    script: {fileID: 0}
  - curve:
      serializedVersion: 2
      m_Curve:
      - time: 0
        value: 0
        inSlope: -22.5
        outSlope: -22.5
        tangentMode: 10
      - time: 0.1
        value: -2.25
        inSlope: -22.5
        outSlope: -22.5
        tangentMode: 10
      m_PreInfinity: 2
      m_PostInfinity: 2
      m_RotationOrder: 4
    attribute: m_Offset.y
    path: Hitboxes/Box1
    classID: 61
    script: {fileID: 0}
  - curve:
      serializedVersion: 2
      m_Curve:
      - time: 0
        value: 0
        inSlope: 44.8
        outSlope: 44.8
        tangentMode: 10
      - time: 0.1
        value: 4.48
        inSlope: 44.8
        outSlope: 44.8
        tangentMode: 10
      m_PreInfinity: 2
      m_PostInfinity: 2
      m_RotationOrder: 4
    attribute: m_Offset.x
    path: Hitboxes/Box1
    classID: 61
    script: {fileID: 0}
  m_PPtrCurves:
  - curve:
    - time: 0
      value: {fileID: 21300000, guid: 568b7b0189e265e47a981f7624241145, type: 3}
    - time: 0.016666668
      value: {fileID: 21300000, guid: 4859654e0a245e8469ef26a0c3cc7680, type: 3}
    - time: 0.05
      value: {fileID: 21300000, guid: 38644271df7dd1c4cb2ff4f084f57b8d, type: 3}
    - time: 0.06666667
      value: {fileID: 21300000, guid: 9428744cc6d6fdd4ab98218777f7fe07, type: 3}
    - time: 0.083333336
      value: {fileID: 21300000, guid: abd891e9628979a4eb1e8a972f1fc5e3, type: 3}
    - time: 0.1
      value: {fileID: 21300000, guid: 25d1ef2cdc3ac9b49ac9d5c0de658efe, type: 3}
    - time: 0.13333334
      value: {fileID: 21300000, guid: 220520ca4797a4346b529dcce892c9c6, type: 3}
    - time: 0.16666667
      value: {fileID: 21300000, guid: eb3665c61290bf04cbb90ab5043ab57c, type: 3}
    - time: 0.2
      value: {fileID: 21300000, guid: 0528669b98117c64299a7e9203a7c34b, type: 3}
    - time: 0.23333333
      value: {fileID: 21300000, guid: 0e89481a960061f41a8a1ab8e5c094dd, type: 3}
    - time: 0.26666668
      value: {fileID: 21300000, guid: 2dfd5a458b3fcd74c9349f92a9971ebc, type: 3}
    - time: 0.3
      value: {fileID: 21300000, guid: 209d298f5719d1f4e85e41d6c0b47a3e, type: 3}
    - time: 0.33333334
      value: {fileID: 21300000, guid: 60c529d1bbdb34a478be2c1a065aef03, type: 3}
    - time: 0.36666667
      value: {fileID: 21300000, guid: dd68477fcb4a9574d9493d7e8be25570, type: 3}
    - time: 0.4
      value: {fileID: 21300000, guid: 25bb9467952fc334dbf64370dddc603b, type: 3}
    - time: 0.41666666
      value: {fileID: 21300000, guid: 23c3fe289e5789f418dcf3fcbfd8f53e, type: 3}
    - time: 0.43333334
      value: {fileID: 21300000, guid: 94e29245110c2cc4595cb17ba48bd5a3, type: 3}
    attribute: m_Sprite
    path: 
    classID: 212
    script: {fileID: 0}
  m_SampleRate: 60
  m_WrapMode: 0
  m_Bounds:
    m_Center: {x: 0, y: 0, z: 0}
    m_Extent: {x: 0, y: 0, z: 0}
  m_ClipBindingConstant:
    genericBindings:
    - path: 2020620807
      attribute: 3305885265
      script: {fileID: 0}
      classID: 61
      customType: 0
      isPPtrCurve: 0
    - path: 2020620807
      attribute: 2368279999
      script: {fileID: 0}
      classID: 61
      customType: 0
      isPPtrCurve: 0
    - path: 2020620807
      attribute: 4197328169
      script: {fileID: 0}
      classID: 61
      customType: 0
      isPPtrCurve: 0
    - path: 2020620807
      attribute: 1872933342
      script: {fileID: 0}
      classID: 61
      customType: 0
      isPPtrCurve: 0
    - path: 2020620807
      attribute: 413499720
      script: {fileID: 0}
      classID: 61
      customType: 0
      isPPtrCurve: 0
    - path: 0
      attribute: 0
      script: {fileID: 0}
      classID: 212
      customType: 23
      isPPtrCurve: 1
    pptrCurveMapping:
    - {fileID: 21300000, guid: 568b7b0189e265e47a981f7624241145, type: 3}
    - {fileID: 21300000, guid: 4859654e0a245e8469ef26a0c3cc7680, type: 3}
    - {fileID: 21300000, guid: 38644271df7dd1c4cb2ff4f084f57b8d, type: 3}
    - {fileID: 21300000, guid: 9428744cc6d6fdd4ab98218777f7fe07, type: 3}
    - {fileID: 21300000, guid: abd891e9628979a4eb1e8a972f1fc5e3, type: 3}
    - {fileID: 21300000, guid: 25d1ef2cdc3ac9b49ac9d5c0de658efe, type: 3}
    - {fileID: 21300000, guid: 220520ca4797a4346b529dcce892c9c6, type: 3}
    - {fileID: 21300000, guid: eb3665c61290bf04cbb90ab5043ab57c, type: 3}
    - {fileID: 21300000, guid: 0528669b98117c64299a7e9203a7c34b, type: 3}
    - {fileID: 21300000, guid: 0e89481a960061f41a8a1ab8e5c094dd, type: 3}
    - {fileID: 21300000, guid: 2dfd5a458b3fcd74c9349f92a9971ebc, type: 3}
    - {fileID: 21300000, guid: 209d298f5719d1f4e85e41d6c0b47a3e, type: 3}
    - {fileID: 21300000, guid: 60c529d1bbdb34a478be2c1a065aef03, type: 3}
    - {fileID: 21300000, guid: dd68477fcb4a9574d9493d7e8be25570, type: 3}
    - {fileID: 21300000, guid: 25bb9467952fc334dbf64370dddc603b, type: 3}
    - {fileID: 21300000, guid: 23c3fe289e5789f418dcf3fcbfd8f53e, type: 3}
    - {fileID: 21300000, guid: 94e29245110c2cc4595cb17ba48bd5a3, type: 3}
  m_AnimationClipSettings:
    serializedVersion: 2
    m_AdditiveReferencePoseClip: {fileID: 0}
    m_AdditiveReferencePoseTime: 0
    m_StartTime: 0
    m_StopTime: 0.45000002
    m_OrientationOffsetY: 0
    m_Level: 0
    m_CycleOffset: 0
    m_HasAdditiveReferencePose: 0
    m_LoopTime: 1
    m_LoopBlend: 0
    m_LoopBlendOrientation: 0
    m_LoopBlendPositionY: 0
    m_LoopBlendPositionXZ: 0
    m_KeepOriginalOrientation: 0
    m_KeepOriginalPositionY: 1
    m_KeepOriginalPositionXZ: 0
    m_HeightFromFeet: 0
    m_Mirror: 0
  m_EditorCurves:
  - curve:
      serializedVersion: 2
      m_Curve:
      - time: 0
        value: 0
        inSlope: Infinity
        outSlope: Infinity
        tangentMode: 31
      - time: 0.1
        value: 1
        inSlope: Infinity
        outSlope: Infinity
        tangentMode: 31
      - time: 0.18333334
        value: 0
        inSlope: Infinity
        outSlope: Infinity
        tangentMode: 31
      - time: 0.26666668
        value: 0
        inSlope: Infinity
        outSlope: Infinity
        tangentMode: 31
      - time: 0.45
        value: 0
        inSlope: Infinity
        outSlope: Infinity
        tangentMode: 31
      m_PreInfinity: 2
      m_PostInfinity: 2
      m_RotationOrder: 4
    attribute: m_Enabled
    path: Hitboxes/Box1
    classID: 61
    script: {fileID: 0}
  - curve:
      serializedVersion: 2
      m_Curve:
      - time: 0
        value: 0.0001
        inSlope: 19.998999
        outSlope: 19.998999
        tangentMode: 10
      - time: 0.1
        value: 2
        inSlope: 19.998999
        outSlope: 19.998999
        tangentMode: 10
      m_PreInfinity: 2
      m_PostInfinity: 2
      m_RotationOrder: 4
    attribute: m_Size.y
    path: Hitboxes/Box1
    classID: 61
    script: {fileID: 0}
  - curve:
      serializedVersion: 2
      m_Curve:
      - time: 0
        value: 0.0001
        inSlope: 37.099
        outSlope: 37.099
        tangentMode: 10
      - time: 0.1
        value: 3.71
        inSlope: 37.099
        outSlope: 37.099
        tangentMode: 10
      m_PreInfinity: 2
      m_PostInfinity: 2
      m_RotationOrder: 4
    attribute: m_Size.x
    path: Hitboxes/Box1
    classID: 61
    script: {fileID: 0}
  - curve:
      serializedVersion: 2
      m_Curve:
      - time: 0
        value: 0
        inSlope: -22.5
        outSlope: -22.5
        tangentMode: 10
      - time: 0.1
        value: -2.25
        inSlope: -22.5
        outSlope: -22.5
        tangentMode: 10
      m_PreInfinity: 2
      m_PostInfinity: 2
      m_RotationOrder: 4
    attribute: m_Offset.y
    path: Hitboxes/Box1
    classID: 61
    script: {fileID: 0}
  - curve:
      serializedVersion: 2
      m_Curve:
      - time: 0
        value: 0
        inSlope: 44.8
        outSlope: 44.8
        tangentMode: 10
      - time: 0.1
        value: 4.48
        inSlope: 44.8
        outSlope: 44.8
        tangentMode: 10
      m_PreInfinity: 2
      m_PostInfinity: 2
      m_RotationOrder: 4
    attribute: m_Offset.x
    path: Hitboxes/Box1
    classID: 61
    script: {fileID: 0}
  m_EulerEditorCurves: []
  m_HasGenericRootTransform: 0
  m_HasMotionFloatCurves: 0
  m_GenerateMotionCurves: 0
  m_Events: []
