%YAML 1.1
%TAG !u! tag:unity3d.com,2011:
--- !u!74 &7400000
AnimationClip:
  m_ObjectHideFlags: 0
  m_PrefabParentObject: {fileID: 0}
  m_PrefabInternal: {fileID: 0}
  m_Name: Crouching Medium
  serializedVersion: 6
  m_Legacy: 0
  m_Compressed: 0
  m_UseHighQualityCurve: 1
  m_RotationCurves: []
  m_CompressedRotationCurves: []
  m_EulerCurves: []
  m_PositionCurves: []
  m_ScaleCurves: []
  m_FloatCurves:
  - curve:
      serializedVersion: 2
      m_Curve:
      - time: 0
        value: 0
        inSlope: Infinity
        outSlope: Infinity
        tangentMode: 31
      - time: 0.083333336
        value: 1
        inSlope: Infinity
        outSlope: Infinity
        tangentMode: 31
      - time: 0.15
        value: 1
        inSlope: Infinity
        outSlope: Infinity
        tangentMode: 31
      - time: 0.16666667
        value: 0
        inSlope: Infinity
        outSlope: Infinity
        tangentMode: 31
      - time: 0.2
        value: 0
        inSlope: Infinity
        outSlope: Infinity
        tangentMode: 31
      - time: 0.35
        value: 0
        inSlope: Infinity
        outSlope: Infinity
        tangentMode: 31
      m_PreInfinity: 2
      m_PostInfinity: 2
      m_RotationOrder: 4
    attribute: m_Enabled
    path: Hitboxes/Box1
    classID: 61
    script: {fileID: 0}
  - curve:
      serializedVersion: 2
      m_Curve:
      - time: 0
        value: 0.0001
        inSlope: 25.918802
        outSlope: 25.918802
        tangentMode: 10
      - time: 0.083333336
        value: 2.16
        inSlope: 12.959401
        outSlope: 12.959401
        tangentMode: 10
      - time: 0.11666667
        value: 2.16
        inSlope: 0
        outSlope: 0
        tangentMode: 10
      - time: 0.15
        value: 2.16
        inSlope: 0
        outSlope: 0
        tangentMode: 10
      m_PreInfinity: 2
      m_PostInfinity: 2
      m_RotationOrder: 4
    attribute: m_Size.y
    path: Hitboxes/Box1
    classID: 61
    script: {fileID: 0}
  - curve:
      serializedVersion: 2
      m_Curve:
      - time: 0
        value: 0.0001
        inSlope: 25.678802
        outSlope: 25.678802
        tangentMode: 10
      - time: 0.083333336
        value: 2.14
        inSlope: 12.839401
        outSlope: 12.839401
        tangentMode: 10
      - time: 0.11666667
        value: 2.14
        inSlope: 0
        outSlope: 0
        tangentMode: 10
      - time: 0.15
        value: 2.14
        inSlope: 0
        outSlope: 0
        tangentMode: 10
      m_PreInfinity: 2
      m_PostInfinity: 2
      m_RotationOrder: 4
    attribute: m_Size.x
    path: Hitboxes/Box1
    classID: 61
    script: {fileID: 0}
  - curve:
      serializedVersion: 2
      m_Curve:
      - time: 0
        value: 0
        inSlope: -3.72
        outSlope: -3.72
        tangentMode: 10
      - time: 0.083333336
        value: -0.31
        inSlope: -1.86
        outSlope: -1.86
        tangentMode: 10
      - time: 0.11666667
        value: -0.31
        inSlope: 0
        outSlope: 0
        tangentMode: 10
      - time: 0.15
        value: -0.31
        inSlope: 0
        outSlope: 0
        tangentMode: 10
      m_PreInfinity: 2
      m_PostInfinity: 2
      m_RotationOrder: 4
    attribute: m_Offset.y
    path: Hitboxes/Box1
    classID: 61
    script: {fileID: 0}
  - curve:
      serializedVersion: 2
      m_Curve:
      - time: 0
        value: 0
        inSlope: 38.52
        outSlope: 38.52
        tangentMode: 10
      - time: 0.083333336
        value: 3.21
        inSlope: 19.26
        outSlope: 19.26
        tangentMode: 10
      - time: 0.11666667
        value: 3.21
        inSlope: 0
        outSlope: 0
        tangentMode: 10
      - time: 0.15
        value: 3.21
        inSlope: 0
        outSlope: 0
        tangentMode: 10
      m_PreInfinity: 2
      m_PostInfinity: 2
      m_RotationOrder: 4
    attribute: m_Offset.x
    path: Hitboxes/Box1
    classID: 61
    script: {fileID: 0}
  m_PPtrCurves:
  - curve:
    - time: 0
      value: {fileID: 21300000, guid: 17899829526696c488e9128d1f3c8822, type: 3}
    - time: 0.016666668
      value: {fileID: 21300000, guid: 205afdb7004dffb49ab633bd6046e317, type: 3}
    - time: 0.05
      value: {fileID: 21300000, guid: bcc2f66676b655e4fb82ccf52e0b6374, type: 3}
    - time: 0.06666667
      value: {fileID: 21300000, guid: 8326aa116ab555f41844ea034b4bc793, type: 3}
    - time: 0.083333336
      value: {fileID: 21300000, guid: 6225078ad185ced4785b238111bedd3f, type: 3}
    - time: 0.11666667
      value: {fileID: 21300000, guid: 97e7e93cfc5fd5a4b91dccd6b5e1d49e, type: 3}
    - time: 0.15
      value: {fileID: 21300000, guid: 34b07ce77b9c71d45a19048828602804, type: 3}
    - time: 0.2
      value: {fileID: 21300000, guid: 4dc8cdb87d709c546a80f55ca0c9917c, type: 3}
    - time: 0.23333333
      value: {fileID: 21300000, guid: 5078e7bf93876be4dadeff2f36231bbc, type: 3}
    - time: 0.26666668
      value: {fileID: 21300000, guid: ccf30bf7f38adac4ba978db63b80a45a, type: 3}
    - time: 0.3
      value: {fileID: 21300000, guid: 37113d5f9edb17e4e8b10ad245e89822, type: 3}
    - time: 0.33333334
      value: {fileID: 21300000, guid: a520cd48e4ba33e4181de5af401f9f09, type: 3}
    attribute: m_Sprite
    path: 
    classID: 212
    script: {fileID: 0}
  m_SampleRate: 60
  m_WrapMode: 0
  m_Bounds:
    m_Center: {x: 0, y: 0, z: 0}
    m_Extent: {x: 0, y: 0, z: 0}
  m_ClipBindingConstant:
    genericBindings:
    - path: 2020620807
      attribute: 3305885265
      script: {fileID: 0}
      classID: 61
      customType: 0
      isPPtrCurve: 0
    - path: 2020620807
      attribute: 2368279999
      script: {fileID: 0}
      classID: 61
      customType: 0
      isPPtrCurve: 0
    - path: 2020620807
      attribute: 4197328169
      script: {fileID: 0}
      classID: 61
      customType: 0
      isPPtrCurve: 0
    - path: 2020620807
      attribute: 1872933342
      script: {fileID: 0}
      classID: 61
      customType: 0
      isPPtrCurve: 0
    - path: 2020620807
      attribute: 413499720
      script: {fileID: 0}
      classID: 61
      customType: 0
      isPPtrCurve: 0
    - path: 0
      attribute: 0
      script: {fileID: 0}
      classID: 212
      customType: 23
      isPPtrCurve: 1
    pptrCurveMapping:
    - {fileID: 21300000, guid: 17899829526696c488e9128d1f3c8822, type: 3}
    - {fileID: 21300000, guid: 205afdb7004dffb49ab633bd6046e317, type: 3}
    - {fileID: 21300000, guid: bcc2f66676b655e4fb82ccf52e0b6374, type: 3}
    - {fileID: 21300000, guid: 8326aa116ab555f41844ea034b4bc793, type: 3}
    - {fileID: 21300000, guid: 6225078ad185ced4785b238111bedd3f, type: 3}
    - {fileID: 21300000, guid: 97e7e93cfc5fd5a4b91dccd6b5e1d49e, type: 3}
    - {fileID: 21300000, guid: 34b07ce77b9c71d45a19048828602804, type: 3}
    - {fileID: 21300000, guid: 4dc8cdb87d709c546a80f55ca0c9917c, type: 3}
    - {fileID: 21300000, guid: 5078e7bf93876be4dadeff2f36231bbc, type: 3}
    - {fileID: 21300000, guid: ccf30bf7f38adac4ba978db63b80a45a, type: 3}
    - {fileID: 21300000, guid: 37113d5f9edb17e4e8b10ad245e89822, type: 3}
    - {fileID: 21300000, guid: a520cd48e4ba33e4181de5af401f9f09, type: 3}
  m_AnimationClipSettings:
    serializedVersion: 2
    m_AdditiveReferencePoseClip: {fileID: 0}
    m_AdditiveReferencePoseTime: 0
    m_StartTime: 0
    m_StopTime: 0.35000002
    m_OrientationOffsetY: 0
    m_Level: 0
    m_CycleOffset: 0
    m_HasAdditiveReferencePose: 0
    m_LoopTime: 1
    m_LoopBlend: 0
    m_LoopBlendOrientation: 0
    m_LoopBlendPositionY: 0
    m_LoopBlendPositionXZ: 0
    m_KeepOriginalOrientation: 0
    m_KeepOriginalPositionY: 1
    m_KeepOriginalPositionXZ: 0
    m_HeightFromFeet: 0
    m_Mirror: 0
  m_EditorCurves:
  - curve:
      serializedVersion: 2
      m_Curve:
      - time: 0
        value: 0
        inSlope: Infinity
        outSlope: Infinity
        tangentMode: 31
      - time: 0.083333336
        value: 1
        inSlope: Infinity
        outSlope: Infinity
        tangentMode: 31
      - time: 0.15
        value: 1
        inSlope: Infinity
        outSlope: Infinity
        tangentMode: 31
      - time: 0.16666667
        value: 0
        inSlope: Infinity
        outSlope: Infinity
        tangentMode: 31
      - time: 0.2
        value: 0
        inSlope: Infinity
        outSlope: Infinity
        tangentMode: 31
      - time: 0.35
        value: 0
        inSlope: Infinity
        outSlope: Infinity
        tangentMode: 31
      m_PreInfinity: 2
      m_PostInfinity: 2
      m_RotationOrder: 4
    attribute: m_Enabled
    path: Hitboxes/Box1
    classID: 61
    script: {fileID: 0}
  - curve:
      serializedVersion: 2
      m_Curve:
      - time: 0
        value: 0.0001
        inSlope: 25.918802
        outSlope: 25.918802
        tangentMode: 10
      - time: 0.083333336
        value: 2.16
        inSlope: 12.959401
        outSlope: 12.959401
        tangentMode: 10
      - time: 0.11666667
        value: 2.16
        inSlope: 0
        outSlope: 0
        tangentMode: 10
      - time: 0.15
        value: 2.16
        inSlope: 0
        outSlope: 0
        tangentMode: 10
      m_PreInfinity: 2
      m_PostInfinity: 2
      m_RotationOrder: 4
    attribute: m_Size.y
    path: Hitboxes/Box1
    classID: 61
    script: {fileID: 0}
  - curve:
      serializedVersion: 2
      m_Curve:
      - time: 0
        value: 0.0001
        inSlope: 25.678802
        outSlope: 25.678802
        tangentMode: 10
      - time: 0.083333336
        value: 2.14
        inSlope: 12.839401
        outSlope: 12.839401
        tangentMode: 10
      - time: 0.11666667
        value: 2.14
        inSlope: 0
        outSlope: 0
        tangentMode: 10
      - time: 0.15
        value: 2.14
        inSlope: 0
        outSlope: 0
        tangentMode: 10
      m_PreInfinity: 2
      m_PostInfinity: 2
      m_RotationOrder: 4
    attribute: m_Size.x
    path: Hitboxes/Box1
    classID: 61
    script: {fileID: 0}
  - curve:
      serializedVersion: 2
      m_Curve:
      - time: 0
        value: 0
        inSlope: -3.72
        outSlope: -3.72
        tangentMode: 10
      - time: 0.083333336
        value: -0.31
        inSlope: -1.86
        outSlope: -1.86
        tangentMode: 10
      - time: 0.11666667
        value: -0.31
        inSlope: 0
        outSlope: 0
        tangentMode: 10
      - time: 0.15
        value: -0.31
        inSlope: 0
        outSlope: 0
        tangentMode: 10
      m_PreInfinity: 2
      m_PostInfinity: 2
      m_RotationOrder: 4
    attribute: m_Offset.y
    path: Hitboxes/Box1
    classID: 61
    script: {fileID: 0}
  - curve:
      serializedVersion: 2
      m_Curve:
      - time: 0
        value: 0
        inSlope: 38.52
        outSlope: 38.52
        tangentMode: 10
      - time: 0.083333336
        value: 3.21
        inSlope: 19.26
        outSlope: 19.26
        tangentMode: 10
      - time: 0.11666667
        value: 3.21
        inSlope: 0
        outSlope: 0
        tangentMode: 10
      - time: 0.15
        value: 3.21
        inSlope: 0
        outSlope: 0
        tangentMode: 10
      m_PreInfinity: 2
      m_PostInfinity: 2
      m_RotationOrder: 4
    attribute: m_Offset.x
    path: Hitboxes/Box1
    classID: 61
    script: {fileID: 0}
  m_EulerEditorCurves: []
  m_HasGenericRootTransform: 0
  m_HasMotionFloatCurves: 0
  m_GenerateMotionCurves: 0
  m_Events: []
