%YAML 1.1
%TAG !u! tag:unity3d.com,2011:
--- !u!74 &7400000
AnimationClip:
  m_ObjectHideFlags: 0
  m_PrefabParentObject: {fileID: 0}
  m_PrefabInternal: {fileID: 0}
  m_Name: Crouching Punch
  serializedVersion: 6
  m_Legacy: 0
  m_Compressed: 0
  m_UseHighQualityCurve: 1
  m_RotationCurves: []
  m_CompressedRotationCurves: []
  m_EulerCurves: []
  m_PositionCurves: []
  m_ScaleCurves: []
  m_FloatCurves:
  - curve:
      serializedVersion: 2
      m_Curve:
      - time: 0
        value: 0
        inSlope: Infinity
        outSlope: Infinity
        tangentMode: 31
      - time: 0.033333335
        value: 0
        inSlope: Infinity
        outSlope: Infinity
        tangentMode: 31
      - time: 0.05
        value: 1
        inSlope: Infinity
        outSlope: Infinity
        tangentMode: 31
      - time: 0.11666667
        value: 0
        inSlope: Infinity
        outSlope: Infinity
        tangentMode: 31
      - time: 0.13333334
        value: 0
        inSlope: Infinity
        outSlope: Infinity
        tangentMode: 31
      m_PreInfinity: 2
      m_PostInfinity: 2
      m_RotationOrder: 4
    attribute: m_Enabled
    path: Hitboxes/Box1
    classID: 61
    script: {fileID: 0}
  - curve:
      serializedVersion: 2
      m_Curve:
      - time: 0
        value: 0.0001
        inSlope: 20.397999
        outSlope: 20.397999
        tangentMode: 10
      - time: 0.05
        value: 1.02
        inSlope: 10.198999
        outSlope: 10.198999
        tangentMode: 10
      - time: 0.06666667
        value: 1.02
        inSlope: 0
        outSlope: 0
        tangentMode: 10
      - time: 0.083333336
        value: 1.02
        inSlope: 0
        outSlope: 0
        tangentMode: 10
      m_PreInfinity: 2
      m_PostInfinity: 2
      m_RotationOrder: 4
    attribute: m_Size.y
    path: Hitboxes/Box1
    classID: 61
    script: {fileID: 0}
  - curve:
      serializedVersion: 2
      m_Curve:
      - time: 0
        value: 0.0001
        inSlope: 43.998
        outSlope: 43.998
        tangentMode: 10
      - time: 0.05
        value: 2.2
        inSlope: 21.999
        outSlope: 21.999
        tangentMode: 10
      - time: 0.06666667
        value: 2.2
        inSlope: 0
        outSlope: 0
        tangentMode: 10
      - time: 0.083333336
        value: 2.2
        inSlope: 0
        outSlope: 0
        tangentMode: 10
      m_PreInfinity: 2
      m_PostInfinity: 2
      m_RotationOrder: 4
    attribute: m_Size.x
    path: Hitboxes/Box1
    classID: 61
    script: {fileID: 0}
  - curve:
      serializedVersion: 2
      m_Curve:
      - time: 0
        value: 0
        inSlope: 37
        outSlope: 37
        tangentMode: 10
      - time: 0.05
        value: 1.85
        inSlope: 18.5
        outSlope: 18.5
        tangentMode: 10
      - time: 0.06666667
        value: 1.85
        inSlope: 0
        outSlope: 0
        tangentMode: 10
      - time: 0.083333336
        value: 1.85
        inSlope: 0
        outSlope: 0
        tangentMode: 10
      m_PreInfinity: 2
      m_PostInfinity: 2
      m_RotationOrder: 4
    attribute: m_Offset.x
    path: Hitboxes/Box1
    classID: 61
    script: {fileID: 0}
  - curve:
      serializedVersion: 2
      m_Curve:
      - time: 0
        value: 0
        inSlope: -7.6
        outSlope: -7.6
        tangentMode: 10
      - time: 0.05
        value: -0.38
        inSlope: -3.8
        outSlope: -3.8
        tangentMode: 10
      - time: 0.06666667
        value: -0.38
        inSlope: 0
        outSlope: 0
        tangentMode: 10
      - time: 0.083333336
        value: -0.38
        inSlope: 0
        outSlope: 0
        tangentMode: 10
      m_PreInfinity: 2
      m_PostInfinity: 2
      m_RotationOrder: 4
    attribute: m_Offset.y
    path: Hitboxes/Box1
    classID: 61
    script: {fileID: 0}
  m_PPtrCurves:
  - curve:
    - time: 0
      value: {fileID: 21300000, guid: b2c7bb65e5bee654abf7584cfcac8f0f, type: 3}
    - time: 0.033333335
      value: {fileID: 21300000, guid: b34c83580fe4a6148831086548c04d4a, type: 3}
    - time: 0.06666667
      value: {fileID: 21300000, guid: 85b85d5a35d59964fab8c0e48ef7d1da, type: 3}
    - time: 0.083333336
      value: {fileID: 21300000, guid: 85b85d5a35d59964fab8c0e48ef7d1da, type: 3}
    - time: 0.13333334
      value: {fileID: 21300000, guid: 30c1532b16c76944ab2c66461b1ac9f9, type: 3}
    - time: 0.16666667
      value: {fileID: 21300000, guid: 9b5e2f5f4eefe8f499f1e404a3043a76, type: 3}
    - time: 0.2
      value: {fileID: 21300000, guid: 3b8dc32d1f277944498681fce5026403, type: 3}
    - time: 0.21666667
      value: {fileID: 21300000, guid: a99484b2476da9749afcfb40212f68df, type: 3}
    attribute: m_Sprite
    path: 
    classID: 212
    script: {fileID: 0}
  m_SampleRate: 60
  m_WrapMode: 0
  m_Bounds:
    m_Center: {x: 0, y: 0, z: 0}
    m_Extent: {x: 0, y: 0, z: 0}
  m_ClipBindingConstant:
    genericBindings:
    - path: 2020620807
      attribute: 3305885265
      script: {fileID: 0}
      classID: 61
      customType: 0
      isPPtrCurve: 0
    - path: 2020620807
      attribute: 2368279999
      script: {fileID: 0}
      classID: 61
      customType: 0
      isPPtrCurve: 0
    - path: 2020620807
      attribute: 4197328169
      script: {fileID: 0}
      classID: 61
      customType: 0
      isPPtrCurve: 0
    - path: 2020620807
      attribute: 413499720
      script: {fileID: 0}
      classID: 61
      customType: 0
      isPPtrCurve: 0
    - path: 2020620807
      attribute: 1872933342
      script: {fileID: 0}
      classID: 61
      customType: 0
      isPPtrCurve: 0
    - path: 0
      attribute: 0
      script: {fileID: 0}
      classID: 212
      customType: 23
      isPPtrCurve: 1
    pptrCurveMapping:
    - {fileID: 21300000, guid: b2c7bb65e5bee654abf7584cfcac8f0f, type: 3}
    - {fileID: 21300000, guid: b34c83580fe4a6148831086548c04d4a, type: 3}
    - {fileID: 21300000, guid: 85b85d5a35d59964fab8c0e48ef7d1da, type: 3}
    - {fileID: 21300000, guid: 85b85d5a35d59964fab8c0e48ef7d1da, type: 3}
    - {fileID: 21300000, guid: 30c1532b16c76944ab2c66461b1ac9f9, type: 3}
    - {fileID: 21300000, guid: 9b5e2f5f4eefe8f499f1e404a3043a76, type: 3}
    - {fileID: 21300000, guid: 3b8dc32d1f277944498681fce5026403, type: 3}
    - {fileID: 21300000, guid: a99484b2476da9749afcfb40212f68df, type: 3}
  m_AnimationClipSettings:
    serializedVersion: 2
    m_AdditiveReferencePoseClip: {fileID: 0}
    m_AdditiveReferencePoseTime: 0
    m_StartTime: 0
    m_StopTime: 0.23333333
    m_OrientationOffsetY: 0
    m_Level: 0
    m_CycleOffset: 0
    m_HasAdditiveReferencePose: 0
    m_LoopTime: 1
    m_LoopBlend: 0
    m_LoopBlendOrientation: 0
    m_LoopBlendPositionY: 0
    m_LoopBlendPositionXZ: 0
    m_KeepOriginalOrientation: 0
    m_KeepOriginalPositionY: 1
    m_KeepOriginalPositionXZ: 0
    m_HeightFromFeet: 0
    m_Mirror: 0
  m_EditorCurves:
  - curve:
      serializedVersion: 2
      m_Curve:
      - time: 0
        value: 0
        inSlope: Infinity
        outSlope: Infinity
        tangentMode: 31
      - time: 0.033333335
        value: 0
        inSlope: Infinity
        outSlope: Infinity
        tangentMode: 31
      - time: 0.05
        value: 1
        inSlope: Infinity
        outSlope: Infinity
        tangentMode: 31
      - time: 0.11666667
        value: 0
        inSlope: Infinity
        outSlope: Infinity
        tangentMode: 31
      - time: 0.13333334
        value: 0
        inSlope: Infinity
        outSlope: Infinity
        tangentMode: 31
      m_PreInfinity: 2
      m_PostInfinity: 2
      m_RotationOrder: 4
    attribute: m_Enabled
    path: Hitboxes/Box1
    classID: 61
    script: {fileID: 0}
  - curve:
      serializedVersion: 2
      m_Curve:
      - time: 0
        value: 0.0001
        inSlope: 20.397999
        outSlope: 20.397999
        tangentMode: 10
      - time: 0.05
        value: 1.02
        inSlope: 10.198999
        outSlope: 10.198999
        tangentMode: 10
      - time: 0.06666667
        value: 1.02
        inSlope: 0
        outSlope: 0
        tangentMode: 10
      - time: 0.083333336
        value: 1.02
        inSlope: 0
        outSlope: 0
        tangentMode: 10
      m_PreInfinity: 2
      m_PostInfinity: 2
      m_RotationOrder: 4
    attribute: m_Size.y
    path: Hitboxes/Box1
    classID: 61
    script: {fileID: 0}
  - curve:
      serializedVersion: 2
      m_Curve:
      - time: 0
        value: 0.0001
        inSlope: 43.998
        outSlope: 43.998
        tangentMode: 10
      - time: 0.05
        value: 2.2
        inSlope: 21.999
        outSlope: 21.999
        tangentMode: 10
      - time: 0.06666667
        value: 2.2
        inSlope: 0
        outSlope: 0
        tangentMode: 10
      - time: 0.083333336
        value: 2.2
        inSlope: 0
        outSlope: 0
        tangentMode: 10
      m_PreInfinity: 2
      m_PostInfinity: 2
      m_RotationOrder: 4
    attribute: m_Size.x
    path: Hitboxes/Box1
    classID: 61
    script: {fileID: 0}
  - curve:
      serializedVersion: 2
      m_Curve:
      - time: 0
        value: 0
        inSlope: 37
        outSlope: 37
        tangentMode: 10
      - time: 0.05
        value: 1.85
        inSlope: 18.5
        outSlope: 18.5
        tangentMode: 10
      - time: 0.06666667
        value: 1.85
        inSlope: 0
        outSlope: 0
        tangentMode: 10
      - time: 0.083333336
        value: 1.85
        inSlope: 0
        outSlope: 0
        tangentMode: 10
      m_PreInfinity: 2
      m_PostInfinity: 2
      m_RotationOrder: 4
    attribute: m_Offset.x
    path: Hitboxes/Box1
    classID: 61
    script: {fileID: 0}
  - curve:
      serializedVersion: 2
      m_Curve:
      - time: 0
        value: 0
        inSlope: -7.6
        outSlope: -7.6
        tangentMode: 10
      - time: 0.05
        value: -0.38
        inSlope: -3.8
        outSlope: -3.8
        tangentMode: 10
      - time: 0.06666667
        value: -0.38
        inSlope: 0
        outSlope: 0
        tangentMode: 10
      - time: 0.083333336
        value: -0.38
        inSlope: 0
        outSlope: 0
        tangentMode: 10
      m_PreInfinity: 2
      m_PostInfinity: 2
      m_RotationOrder: 4
    attribute: m_Offset.y
    path: Hitboxes/Box1
    classID: 61
    script: {fileID: 0}
  m_EulerEditorCurves: []
  m_HasGenericRootTransform: 0
  m_HasMotionFloatCurves: 0
  m_GenerateMotionCurves: 0
  m_Events: []
