%YAML 1.1
%TAG !u! tag:unity3d.com,2011:
--- !u!74 &7400000
AnimationClip:
  m_ObjectHideFlags: 0
  m_PrefabParentObject: {fileID: 0}
  m_PrefabInternal: {fileID: 0}
  m_Name: Medium
  serializedVersion: 6
  m_Legacy: 0
  m_Compressed: 0
  m_UseHighQualityCurve: 1
  m_RotationCurves: []
  m_CompressedRotationCurves: []
  m_EulerCurves: []
  m_PositionCurves: []
  m_ScaleCurves: []
  m_FloatCurves:
  - curve:
      serializedVersion: 2
      m_Curve:
      - time: 0
        value: 0
        inSlope: Infinity
        outSlope: Infinity
        tangentMode: 31
      - time: 0.083333336
        value: 0
        inSlope: Infinity
        outSlope: Infinity
        tangentMode: 31
      - time: 0.1
        value: 1
        inSlope: Infinity
        outSlope: Infinity
        tangentMode: 31
      - time: 0.16666667
        value: 1
        inSlope: Infinity
        outSlope: Infinity
        tangentMode: 31
      - time: 0.18333334
        value: 0
        inSlope: Infinity
        outSlope: Infinity
        tangentMode: 31
      - time: 0.2
        value: 0
        inSlope: Infinity
        outSlope: Infinity
        tangentMode: 31
      - time: 0.23333333
        value: 0
        inSlope: Infinity
        outSlope: Infinity
        tangentMode: 31
      - time: 0.28333333
        value: 0
        inSlope: Infinity
        outSlope: Infinity
        tangentMode: 31
      - time: 0.36666667
        value: 1
        inSlope: Infinity
        outSlope: Infinity
        tangentMode: 31
      m_PreInfinity: 2
      m_PostInfinity: 2
      m_RotationOrder: 4
    attribute: m_Enabled
    path: Hitboxes/Box1
    classID: 61
    script: {fileID: 0}
  - curve:
      serializedVersion: 2
      m_Curve:
      - time: 0
        value: 0
        inSlope: 30
        outSlope: 30
        tangentMode: 10
      - time: 0.1
        value: 3
        inSlope: 15
        outSlope: 15
        tangentMode: 10
      - time: 0.11666667
        value: 3
        inSlope: 0
        outSlope: 0
        tangentMode: 10
      - time: 0.13333334
        value: 3
        inSlope: 0
        outSlope: 0
        tangentMode: 10
      - time: 0.15
        value: 3
        inSlope: -11.0999975
        outSlope: -11.0999975
        tangentMode: 10
      - time: 0.16666667
        value: 2.63
        inSlope: -19.050001
        outSlope: -19.050001
        tangentMode: 10
      - time: 0.2
        value: 2.1
        inSlope: -11.700002
        outSlope: -11.700002
        tangentMode: 10
      - time: 0.23333333
        value: 1.85
        inSlope: -10.687498
        outSlope: -10.687498
        tangentMode: 10
      - time: 0.36666667
        value: 0
        inSlope: -13.874999
        outSlope: -13.874999
        tangentMode: 10
      m_PreInfinity: 2
      m_PostInfinity: 2
      m_RotationOrder: 4
    attribute: m_Offset.x
    path: Hitboxes/Box1
    classID: 61
    script: {fileID: 0}
  - curve:
      serializedVersion: 2
      m_Curve:
      - time: 0
        value: 0
        inSlope: 3.6000001
        outSlope: 3.6000001
        tangentMode: 10
      - time: 0.1
        value: 0.36
        inSlope: 1.8000001
        outSlope: 1.8000001
        tangentMode: 10
      - time: 0.11666667
        value: 0.36
        inSlope: 0
        outSlope: 0
        tangentMode: 10
      - time: 0.13333334
        value: 0.36
        inSlope: 0
        outSlope: 0
        tangentMode: 10
      - time: 0.15
        value: 0.36
        inSlope: -2.8312497
        outSlope: -2.8312497
        tangentMode: 10
      - time: 0.16666667
        value: 0.26562503
        inSlope: -4.565625
        outSlope: -4.565625
        tangentMode: 10
      - time: 0.2
        value: 0.15
        inSlope: -4.2843757
        outSlope: -4.2843757
        tangentMode: 10
      - time: 0.23333333
        value: -0.02
        inSlope: -2.4750001
        outSlope: -2.4750001
        tangentMode: 10
      - time: 0.36666667
        value: 0
        inSlope: 0.14999999
        outSlope: 0.14999999
        tangentMode: 10
      m_PreInfinity: 2
      m_PostInfinity: 2
      m_RotationOrder: 4
    attribute: m_Offset.y
    path: Hitboxes/Box1
    classID: 61
    script: {fileID: 0}
  - curve:
      serializedVersion: 2
      m_Curve:
      - time: 0
        value: 1
        inSlope: 15
        outSlope: 15
        tangentMode: 10
      - time: 0.1
        value: 2.5
        inSlope: 7.5
        outSlope: 7.5
        tangentMode: 10
      - time: 0.11666667
        value: 2.5
        inSlope: 0
        outSlope: 0
        tangentMode: 10
      - time: 0.13333334
        value: 2.5
        inSlope: 0
        outSlope: 0
        tangentMode: 10
      - time: 0.15
        value: 2.5
        inSlope: -3.4124997
        outSlope: -3.4124997
        tangentMode: 10
      - time: 0.16666667
        value: 2.38625
        inSlope: -12.50625
        outSlope: -12.50625
        tangentMode: 10
      - time: 0.2
        value: 1.78
        inSlope: -16.593752
        outSlope: -16.593752
        tangentMode: 10
      - time: 0.23333333
        value: 1.28
        inSlope: -8.55
        outSlope: -8.55
        tangentMode: 10
      - time: 0.36666667
        value: 1
        inSlope: -2.0999997
        outSlope: -2.0999997
        tangentMode: 10
      m_PreInfinity: 2
      m_PostInfinity: 2
      m_RotationOrder: 4
    attribute: m_Size.x
    path: Hitboxes/Box1
    classID: 61
    script: {fileID: 0}
  - curve:
      serializedVersion: 2
      m_Curve:
      - time: 0
        value: 1
        inSlope: 3.9999998
        outSlope: 3.9999998
        tangentMode: 10
      - time: 0.1
        value: 1.4
        inSlope: 1.9999999
        outSlope: 1.9999999
        tangentMode: 10
      - time: 0.11666667
        value: 1.4
        inSlope: 0
        outSlope: 0
        tangentMode: 10
      - time: 0.13333334
        value: 1.4
        inSlope: 0
        outSlope: 0
        tangentMode: 10
      - time: 0.15
        value: 1.4
        inSlope: 0
        outSlope: 0
        tangentMode: 10
      - time: 0.16666667
        value: 1.4
        inSlope: 4.3500013
        outSlope: 4.3500013
        tangentMode: 10
      - time: 0.2
        value: 1.69
        inSlope: 4.3500013
        outSlope: 4.3500013
        tangentMode: 10
      - time: 0.23333333
        value: 1.69
        inSlope: -2.5875
        outSlope: -2.5875
        tangentMode: 10
      - time: 0.36666667
        value: 1
        inSlope: -5.175
        outSlope: -5.175
        tangentMode: 10
      m_PreInfinity: 2
      m_PostInfinity: 2
      m_RotationOrder: 4
    attribute: m_Size.y
    path: Hitboxes/Box1
    classID: 61
    script: {fileID: 0}
  m_PPtrCurves:
  - curve:
    - time: 0
      value: {fileID: 21300000, guid: 025c8ce342105634f8c562adf5f0a138, type: 3}
    - time: 0.033333335
      value: {fileID: 21300000, guid: bb15ee40c43a0174194b3992ce7ccede, type: 3}
    - time: 0.05
      value: {fileID: 21300000, guid: 6915bf4a85f094c48b3ea1b8b8bc8624, type: 3}
    - time: 0.06666667
      value: {fileID: 21300000, guid: 1d2ad597f6ebf4b47a1b8bfb58594f77, type: 3}
    - time: 0.083333336
      value: {fileID: 21300000, guid: c9e6476be0d5dfc4bbc1eda51b5a1269, type: 3}
    - time: 0.1
      value: {fileID: 21300000, guid: c9e6476be0d5dfc4bbc1eda51b5a1269, type: 3}
    - time: 0.11666667
      value: {fileID: 21300000, guid: 570cf34401d3764489b2ba9ba8f03e94, type: 3}
    - time: 0.16666667
      value: {fileID: 21300000, guid: 6dd47b1dad8e50f4cb0eef2fe58b05e9, type: 3}
    - time: 0.18333334
      value: {fileID: 21300000, guid: 6dd47b1dad8e50f4cb0eef2fe58b05e9, type: 3}
    - time: 0.2
      value: {fileID: 21300000, guid: e51a2df35bde677449db20da150865c3, type: 3}
    - time: 0.23333333
      value: {fileID: 21300000, guid: a72b50b94ac10b5439980156bb9f8e44, type: 3}
    - time: 0.28333333
      value: {fileID: 21300000, guid: d9dd18c7524f7494583b32c139a417dc, type: 3}
    - time: 0.31666666
      value: {fileID: 21300000, guid: 9a83945a240b03e4885452d6b002e6fa, type: 3}
    - time: 0.35
      value: {fileID: 21300000, guid: 1b83b053167848e42999eb1589b2bfdb, type: 3}
    attribute: m_Sprite
    path: 
    classID: 212
    script: {fileID: 0}
  m_SampleRate: 60
  m_WrapMode: 0
  m_Bounds:
    m_Center: {x: 0, y: 0, z: 0}
    m_Extent: {x: 0, y: 0, z: 0}
  m_ClipBindingConstant:
    genericBindings:
    - path: 3917490214
      attribute: 3305885265
      script: {fileID: 0}
      classID: 61
      customType: 0
      isPPtrCurve: 0
    - path: 3917490214
      attribute: 413499720
      script: {fileID: 0}
      classID: 61
      customType: 0
      isPPtrCurve: 0
    - path: 3917490214
      attribute: 1872933342
      script: {fileID: 0}
      classID: 61
      customType: 0
      isPPtrCurve: 0
    - path: 3917490214
      attribute: 4197328169
      script: {fileID: 0}
      classID: 61
      customType: 0
      isPPtrCurve: 0
    - path: 3917490214
      attribute: 2368279999
      script: {fileID: 0}
      classID: 61
      customType: 0
      isPPtrCurve: 0
    - path: 0
      attribute: 0
      script: {fileID: 0}
      classID: 212
      customType: 23
      isPPtrCurve: 1
    pptrCurveMapping:
    - {fileID: 21300000, guid: 025c8ce342105634f8c562adf5f0a138, type: 3}
    - {fileID: 21300000, guid: bb15ee40c43a0174194b3992ce7ccede, type: 3}
    - {fileID: 21300000, guid: 6915bf4a85f094c48b3ea1b8b8bc8624, type: 3}
    - {fileID: 21300000, guid: 1d2ad597f6ebf4b47a1b8bfb58594f77, type: 3}
    - {fileID: 21300000, guid: c9e6476be0d5dfc4bbc1eda51b5a1269, type: 3}
    - {fileID: 21300000, guid: c9e6476be0d5dfc4bbc1eda51b5a1269, type: 3}
    - {fileID: 21300000, guid: 570cf34401d3764489b2ba9ba8f03e94, type: 3}
    - {fileID: 21300000, guid: 6dd47b1dad8e50f4cb0eef2fe58b05e9, type: 3}
    - {fileID: 21300000, guid: 6dd47b1dad8e50f4cb0eef2fe58b05e9, type: 3}
    - {fileID: 21300000, guid: e51a2df35bde677449db20da150865c3, type: 3}
    - {fileID: 21300000, guid: a72b50b94ac10b5439980156bb9f8e44, type: 3}
    - {fileID: 21300000, guid: d9dd18c7524f7494583b32c139a417dc, type: 3}
    - {fileID: 21300000, guid: 9a83945a240b03e4885452d6b002e6fa, type: 3}
    - {fileID: 21300000, guid: 1b83b053167848e42999eb1589b2bfdb, type: 3}
  m_AnimationClipSettings:
    serializedVersion: 2
    m_AdditiveReferencePoseClip: {fileID: 0}
    m_AdditiveReferencePoseTime: 0
    m_StartTime: 0
    m_StopTime: 0.36666667
    m_OrientationOffsetY: 0
    m_Level: 0
    m_CycleOffset: 0
    m_HasAdditiveReferencePose: 0
    m_LoopTime: 1
    m_LoopBlend: 0
    m_LoopBlendOrientation: 0
    m_LoopBlendPositionY: 0
    m_LoopBlendPositionXZ: 0
    m_KeepOriginalOrientation: 0
    m_KeepOriginalPositionY: 1
    m_KeepOriginalPositionXZ: 0
    m_HeightFromFeet: 0
    m_Mirror: 0
  m_EditorCurves:
  - curve:
      serializedVersion: 2
      m_Curve:
      - time: 0
        value: 0
        inSlope: Infinity
        outSlope: Infinity
        tangentMode: 31
      - time: 0.083333336
        value: 0
        inSlope: Infinity
        outSlope: Infinity
        tangentMode: 31
      - time: 0.1
        value: 1
        inSlope: Infinity
        outSlope: Infinity
        tangentMode: 31
      - time: 0.16666667
        value: 1
        inSlope: Infinity
        outSlope: Infinity
        tangentMode: 31
      - time: 0.18333334
        value: 0
        inSlope: Infinity
        outSlope: Infinity
        tangentMode: 31
      - time: 0.2
        value: 0
        inSlope: Infinity
        outSlope: Infinity
        tangentMode: 31
      - time: 0.23333333
        value: 0
        inSlope: Infinity
        outSlope: Infinity
        tangentMode: 31
      - time: 0.28333333
        value: 0
        inSlope: Infinity
        outSlope: Infinity
        tangentMode: 31
      - time: 0.36666667
        value: 1
        inSlope: Infinity
        outSlope: Infinity
        tangentMode: 31
      m_PreInfinity: 2
      m_PostInfinity: 2
      m_RotationOrder: 4
    attribute: m_Enabled
    path: Hitboxes/Box1
    classID: 61
    script: {fileID: 0}
  - curve:
      serializedVersion: 2
      m_Curve:
      - time: 0
        value: 0
        inSlope: 30
        outSlope: 30
        tangentMode: 10
      - time: 0.1
        value: 3
        inSlope: 15
        outSlope: 15
        tangentMode: 10
      - time: 0.11666667
        value: 3
        inSlope: 0
        outSlope: 0
        tangentMode: 10
      - time: 0.13333334
        value: 3
        inSlope: 0
        outSlope: 0
        tangentMode: 10
      - time: 0.15
        value: 3
        inSlope: -11.0999975
        outSlope: -11.0999975
        tangentMode: 10
      - time: 0.16666667
        value: 2.63
        inSlope: -19.050001
        outSlope: -19.050001
        tangentMode: 10
      - time: 0.2
        value: 2.1
        inSlope: -11.700002
        outSlope: -11.700002
        tangentMode: 10
      - time: 0.23333333
        value: 1.85
        inSlope: -10.687498
        outSlope: -10.687498
        tangentMode: 10
      - time: 0.36666667
        value: 0
        inSlope: -13.874999
        outSlope: -13.874999
        tangentMode: 10
      m_PreInfinity: 2
      m_PostInfinity: 2
      m_RotationOrder: 4
    attribute: m_Offset.x
    path: Hitboxes/Box1
    classID: 61
    script: {fileID: 0}
  - curve:
      serializedVersion: 2
      m_Curve:
      - time: 0
        value: 0
        inSlope: 3.6000001
        outSlope: 3.6000001
        tangentMode: 10
      - time: 0.1
        value: 0.36
        inSlope: 1.8000001
        outSlope: 1.8000001
        tangentMode: 10
      - time: 0.11666667
        value: 0.36
        inSlope: 0
        outSlope: 0
        tangentMode: 10
      - time: 0.13333334
        value: 0.36
        inSlope: 0
        outSlope: 0
        tangentMode: 10
      - time: 0.15
        value: 0.36
        inSlope: -2.8312497
        outSlope: -2.8312497
        tangentMode: 10
      - time: 0.16666667
        value: 0.26562503
        inSlope: -4.565625
        outSlope: -4.565625
        tangentMode: 10
      - time: 0.2
        value: 0.15
        inSlope: -4.2843757
        outSlope: -4.2843757
        tangentMode: 10
      - time: 0.23333333
        value: -0.02
        inSlope: -2.4750001
        outSlope: -2.4750001
        tangentMode: 10
      - time: 0.36666667
        value: 0
        inSlope: 0.14999999
        outSlope: 0.14999999
        tangentMode: 10
      m_PreInfinity: 2
      m_PostInfinity: 2
      m_RotationOrder: 4
    attribute: m_Offset.y
    path: Hitboxes/Box1
    classID: 61
    script: {fileID: 0}
  - curve:
      serializedVersion: 2
      m_Curve:
      - time: 0
        value: 1
        inSlope: 15
        outSlope: 15
        tangentMode: 10
      - time: 0.1
        value: 2.5
        inSlope: 7.5
        outSlope: 7.5
        tangentMode: 10
      - time: 0.11666667
        value: 2.5
        inSlope: 0
        outSlope: 0
        tangentMode: 10
      - time: 0.13333334
        value: 2.5
        inSlope: 0
        outSlope: 0
        tangentMode: 10
      - time: 0.15
        value: 2.5
        inSlope: -3.4124997
        outSlope: -3.4124997
        tangentMode: 10
      - time: 0.16666667
        value: 2.38625
        inSlope: -12.50625
        outSlope: -12.50625
        tangentMode: 10
      - time: 0.2
        value: 1.78
        inSlope: -16.593752
        outSlope: -16.593752
        tangentMode: 10
      - time: 0.23333333
        value: 1.28
        inSlope: -8.55
        outSlope: -8.55
        tangentMode: 10
      - time: 0.36666667
        value: 1
        inSlope: -2.0999997
        outSlope: -2.0999997
        tangentMode: 10
      m_PreInfinity: 2
      m_PostInfinity: 2
      m_RotationOrder: 4
    attribute: m_Size.x
    path: Hitboxes/Box1
    classID: 61
    script: {fileID: 0}
  - curve:
      serializedVersion: 2
      m_Curve:
      - time: 0
        value: 1
        inSlope: 3.9999998
        outSlope: 3.9999998
        tangentMode: 10
      - time: 0.1
        value: 1.4
        inSlope: 1.9999999
        outSlope: 1.9999999
        tangentMode: 10
      - time: 0.11666667
        value: 1.4
        inSlope: 0
        outSlope: 0
        tangentMode: 10
      - time: 0.13333334
        value: 1.4
        inSlope: 0
        outSlope: 0
        tangentMode: 10
      - time: 0.15
        value: 1.4
        inSlope: 0
        outSlope: 0
        tangentMode: 10
      - time: 0.16666667
        value: 1.4
        inSlope: 4.3500013
        outSlope: 4.3500013
        tangentMode: 10
      - time: 0.2
        value: 1.69
        inSlope: 4.3500013
        outSlope: 4.3500013
        tangentMode: 10
      - time: 0.23333333
        value: 1.69
        inSlope: -2.5875
        outSlope: -2.5875
        tangentMode: 10
      - time: 0.36666667
        value: 1
        inSlope: -5.175
        outSlope: -5.175
        tangentMode: 10
      m_PreInfinity: 2
      m_PostInfinity: 2
      m_RotationOrder: 4
    attribute: m_Size.y
    path: Hitboxes/Box1
    classID: 61
    script: {fileID: 0}
  m_EulerEditorCurves: []
  m_HasGenericRootTransform: 0
  m_HasMotionFloatCurves: 0
  m_GenerateMotionCurves: 0
  m_Events: []
