%YAML 1.1
%TAG !u! tag:unity3d.com,2011:
--- !u!74 &7400000
AnimationClip:
  m_ObjectHideFlags: 0
  m_PrefabParentObject: {fileID: 0}
  m_PrefabInternal: {fileID: 0}
  m_Name: Punch
  serializedVersion: 6
  m_Legacy: 0
  m_Compressed: 0
  m_UseHighQualityCurve: 1
  m_RotationCurves: []
  m_CompressedRotationCurves: []
  m_EulerCurves: []
  m_PositionCurves: []
  m_ScaleCurves: []
  m_FloatCurves:
  - curve:
      serializedVersion: 2
      m_Curve:
      - time: 0
        value: 0
        inSlope: Infinity
        outSlope: Infinity
        tangentMode: 31
      - time: 0.033333335
        value: 1
        inSlope: Infinity
        outSlope: Infinity
        tangentMode: 31
      - time: 0.05
        value: 1
        inSlope: Infinity
        outSlope: Infinity
        tangentMode: 31
      - time: 0.06666667
        value: 1
        inSlope: Infinity
        outSlope: Infinity
        tangentMode: 31
      - time: 0.083333336
        value: 1
        inSlope: Infinity
        outSlope: Infinity
        tangentMode: 31
      - time: 0.1
        value: 0
        inSlope: Infinity
        outSlope: Infinity
        tangentMode: 31
      - time: 0.18333334
        value: 0
        inSlope: Infinity
        outSlope: Infinity
        tangentMode: 31
      m_PreInfinity: 2
      m_PostInfinity: 2
      m_RotationOrder: 4
    attribute: m_Enabled
    path: Hitboxes/Box1
    classID: 61
    script: {fileID: 0}
  - curve:
      serializedVersion: 2
      m_Curve:
      - time: 0
        value: 0
        inSlope: 67.5
        outSlope: 67.5
        tangentMode: 10
      - time: 0.033333335
        value: 2.25
        inSlope: 33.75
        outSlope: 33.75
        tangentMode: 10
      - time: 0.05
        value: 2.25
        inSlope: 0
        outSlope: 0
        tangentMode: 10
      - time: 0.06666667
        value: 2.25
        inSlope: 0
        outSlope: 0
        tangentMode: 10
      - time: 0.083333336
        value: 2.25
        inSlope: -67.50001
        outSlope: -67.50001
        tangentMode: 10
      - time: 0.1
        value: 0
        inSlope: -67.50001
        outSlope: -67.50001
        tangentMode: 10
      - time: 0.18333334
        value: 0
        inSlope: 0
        outSlope: 0
        tangentMode: 10
      m_PreInfinity: 2
      m_PostInfinity: 2
      m_RotationOrder: 4
    attribute: m_Offset.x
    path: Hitboxes/Box1
    classID: 61
    script: {fileID: 0}
  - curve:
      serializedVersion: 2
      m_Curve:
      - time: 0
        value: 0
        inSlope: 29.999998
        outSlope: 29.999998
        tangentMode: 10
      - time: 0.033333335
        value: 1
        inSlope: 14.999999
        outSlope: 14.999999
        tangentMode: 10
      - time: 0.05
        value: 1
        inSlope: 0
        outSlope: 0
        tangentMode: 10
      - time: 0.06666667
        value: 1
        inSlope: 0
        outSlope: 0
        tangentMode: 10
      - time: 0.083333336
        value: 1
        inSlope: -30.000002
        outSlope: -30.000002
        tangentMode: 10
      - time: 0.1
        value: 0
        inSlope: -30.000002
        outSlope: -30.000002
        tangentMode: 10
      - time: 0.18333334
        value: 0
        inSlope: 0
        outSlope: 0
        tangentMode: 10
      m_PreInfinity: 2
      m_PostInfinity: 2
      m_RotationOrder: 4
    attribute: m_Offset.y
    path: Hitboxes/Box1
    classID: 61
    script: {fileID: 0}
  - curve:
      serializedVersion: 2
      m_Curve:
      - time: 0
        value: 1
        inSlope: 29.999998
        outSlope: 29.999998
        tangentMode: 10
      - time: 0.033333335
        value: 2
        inSlope: 14.999999
        outSlope: 14.999999
        tangentMode: 10
      - time: 0.05
        value: 2
        inSlope: 0
        outSlope: 0
        tangentMode: 10
      - time: 0.06666667
        value: 2
        inSlope: 0
        outSlope: 0
        tangentMode: 10
      - time: 0.083333336
        value: 2
        inSlope: -30.000002
        outSlope: -30.000002
        tangentMode: 10
      - time: 0.1
        value: 1
        inSlope: -30.000002
        outSlope: -30.000002
        tangentMode: 10
      - time: 0.18333334
        value: 1
        inSlope: 0
        outSlope: 0
        tangentMode: 10
      m_PreInfinity: 2
      m_PostInfinity: 2
      m_RotationOrder: 4
    attribute: m_Size.x
    path: Hitboxes/Box1
    classID: 61
    script: {fileID: 0}
  - curve:
      serializedVersion: 2
      m_Curve:
      - time: 0
        value: 1
        inSlope: 7.4999995
        outSlope: 7.4999995
        tangentMode: 10
      - time: 0.033333335
        value: 1.25
        inSlope: 3.7499998
        outSlope: 3.7499998
        tangentMode: 10
      - time: 0.05
        value: 1.25
        inSlope: 0
        outSlope: 0
        tangentMode: 10
      - time: 0.06666667
        value: 1.25
        inSlope: 0
        outSlope: 0
        tangentMode: 10
      - time: 0.083333336
        value: 1.25
        inSlope: -7.5000005
        outSlope: -7.5000005
        tangentMode: 10
      - time: 0.1
        value: 1
        inSlope: -7.5000005
        outSlope: -7.5000005
        tangentMode: 10
      - time: 0.18333334
        value: 1
        inSlope: 0
        outSlope: 0
        tangentMode: 10
      m_PreInfinity: 2
      m_PostInfinity: 2
      m_RotationOrder: 4
    attribute: m_Size.y
    path: Hitboxes/Box1
    classID: 61
    script: {fileID: 0}
  m_PPtrCurves:
  - curve:
    - time: 0
      value: {fileID: 21300000, guid: 7c47b79ffd5b14e4bb174a37c21b5f96, type: 3}
    - time: 0.016666668
      value: {fileID: 21300000, guid: 9c523900c35ac804f9822ec7a54c5f63, type: 3}
    - time: 0.05
      value: {fileID: 21300000, guid: 6871f9eda8a17cb44a402d4cc7a84320, type: 3}
    - time: 0.06666667
      value: {fileID: 21300000, guid: e900c54aeca91844c94eb4431f8054a3, type: 3}
    - time: 0.11666667
      value: {fileID: 21300000, guid: 36a896d696c3bf9468c0185866bdbb00, type: 3}
    - time: 0.13333334
      value: {fileID: 21300000, guid: aecaec2a2c62884498503d5995a11178, type: 3}
    - time: 0.15
      value: {fileID: 21300000, guid: d31b9b5fe957c664ea7f11bcfef7cffd, type: 3}
    - time: 0.16666667
      value: {fileID: 21300000, guid: 7d89f3a5532afb8468d081ed25744247, type: 3}
    attribute: m_Sprite
    path: 
    classID: 212
    script: {fileID: 0}
  m_SampleRate: 60
  m_WrapMode: 0
  m_Bounds:
    m_Center: {x: 0, y: 0, z: 0}
    m_Extent: {x: 0, y: 0, z: 0}
  m_ClipBindingConstant:
    genericBindings:
    - path: 3917490214
      attribute: 3305885265
      script: {fileID: 0}
      classID: 61
      customType: 0
      isPPtrCurve: 0
    - path: 3917490214
      attribute: 413499720
      script: {fileID: 0}
      classID: 61
      customType: 0
      isPPtrCurve: 0
    - path: 3917490214
      attribute: 1872933342
      script: {fileID: 0}
      classID: 61
      customType: 0
      isPPtrCurve: 0
    - path: 3917490214
      attribute: 4197328169
      script: {fileID: 0}
      classID: 61
      customType: 0
      isPPtrCurve: 0
    - path: 3917490214
      attribute: 2368279999
      script: {fileID: 0}
      classID: 61
      customType: 0
      isPPtrCurve: 0
    - path: 0
      attribute: 0
      script: {fileID: 0}
      classID: 212
      customType: 23
      isPPtrCurve: 1
    pptrCurveMapping:
    - {fileID: 21300000, guid: 7c47b79ffd5b14e4bb174a37c21b5f96, type: 3}
    - {fileID: 21300000, guid: 9c523900c35ac804f9822ec7a54c5f63, type: 3}
    - {fileID: 21300000, guid: 6871f9eda8a17cb44a402d4cc7a84320, type: 3}
    - {fileID: 21300000, guid: e900c54aeca91844c94eb4431f8054a3, type: 3}
    - {fileID: 21300000, guid: 36a896d696c3bf9468c0185866bdbb00, type: 3}
    - {fileID: 21300000, guid: aecaec2a2c62884498503d5995a11178, type: 3}
    - {fileID: 21300000, guid: d31b9b5fe957c664ea7f11bcfef7cffd, type: 3}
    - {fileID: 21300000, guid: 7d89f3a5532afb8468d081ed25744247, type: 3}
  m_AnimationClipSettings:
    serializedVersion: 2
    m_AdditiveReferencePoseClip: {fileID: 0}
    m_AdditiveReferencePoseTime: 0
    m_StartTime: 0
    m_StopTime: 0.18333334
    m_OrientationOffsetY: 0
    m_Level: 0
    m_CycleOffset: 0
    m_HasAdditiveReferencePose: 0
    m_LoopTime: 1
    m_LoopBlend: 0
    m_LoopBlendOrientation: 0
    m_LoopBlendPositionY: 0
    m_LoopBlendPositionXZ: 0
    m_KeepOriginalOrientation: 0
    m_KeepOriginalPositionY: 1
    m_KeepOriginalPositionXZ: 0
    m_HeightFromFeet: 0
    m_Mirror: 0
  m_EditorCurves:
  - curve:
      serializedVersion: 2
      m_Curve:
      - time: 0
        value: 0
        inSlope: Infinity
        outSlope: Infinity
        tangentMode: 31
      - time: 0.033333335
        value: 1
        inSlope: Infinity
        outSlope: Infinity
        tangentMode: 31
      - time: 0.05
        value: 1
        inSlope: Infinity
        outSlope: Infinity
        tangentMode: 31
      - time: 0.06666667
        value: 1
        inSlope: Infinity
        outSlope: Infinity
        tangentMode: 31
      - time: 0.083333336
        value: 1
        inSlope: Infinity
        outSlope: Infinity
        tangentMode: 31
      - time: 0.1
        value: 0
        inSlope: Infinity
        outSlope: Infinity
        tangentMode: 31
      - time: 0.18333334
        value: 0
        inSlope: Infinity
        outSlope: Infinity
        tangentMode: 31
      m_PreInfinity: 2
      m_PostInfinity: 2
      m_RotationOrder: 4
    attribute: m_Enabled
    path: Hitboxes/Box1
    classID: 61
    script: {fileID: 0}
  - curve:
      serializedVersion: 2
      m_Curve:
      - time: 0
        value: 0
        inSlope: 67.5
        outSlope: 67.5
        tangentMode: 10
      - time: 0.033333335
        value: 2.25
        inSlope: 33.75
        outSlope: 33.75
        tangentMode: 10
      - time: 0.05
        value: 2.25
        inSlope: 0
        outSlope: 0
        tangentMode: 10
      - time: 0.06666667
        value: 2.25
        inSlope: 0
        outSlope: 0
        tangentMode: 10
      - time: 0.083333336
        value: 2.25
        inSlope: -67.50001
        outSlope: -67.50001
        tangentMode: 10
      - time: 0.1
        value: 0
        inSlope: -67.50001
        outSlope: -67.50001
        tangentMode: 10
      - time: 0.18333334
        value: 0
        inSlope: 0
        outSlope: 0
        tangentMode: 10
      m_PreInfinity: 2
      m_PostInfinity: 2
      m_RotationOrder: 4
    attribute: m_Offset.x
    path: Hitboxes/Box1
    classID: 61
    script: {fileID: 0}
  - curve:
      serializedVersion: 2
      m_Curve:
      - time: 0
        value: 0
        inSlope: 29.999998
        outSlope: 29.999998
        tangentMode: 10
      - time: 0.033333335
        value: 1
        inSlope: 14.999999
        outSlope: 14.999999
        tangentMode: 10
      - time: 0.05
        value: 1
        inSlope: 0
        outSlope: 0
        tangentMode: 10
      - time: 0.06666667
        value: 1
        inSlope: 0
        outSlope: 0
        tangentMode: 10
      - time: 0.083333336
        value: 1
        inSlope: -30.000002
        outSlope: -30.000002
        tangentMode: 10
      - time: 0.1
        value: 0
        inSlope: -30.000002
        outSlope: -30.000002
        tangentMode: 10
      - time: 0.18333334
        value: 0
        inSlope: 0
        outSlope: 0
        tangentMode: 10
      m_PreInfinity: 2
      m_PostInfinity: 2
      m_RotationOrder: 4
    attribute: m_Offset.y
    path: Hitboxes/Box1
    classID: 61
    script: {fileID: 0}
  - curve:
      serializedVersion: 2
      m_Curve:
      - time: 0
        value: 1
        inSlope: 29.999998
        outSlope: 29.999998
        tangentMode: 10
      - time: 0.033333335
        value: 2
        inSlope: 14.999999
        outSlope: 14.999999
        tangentMode: 10
      - time: 0.05
        value: 2
        inSlope: 0
        outSlope: 0
        tangentMode: 10
      - time: 0.06666667
        value: 2
        inSlope: 0
        outSlope: 0
        tangentMode: 10
      - time: 0.083333336
        value: 2
        inSlope: -30.000002
        outSlope: -30.000002
        tangentMode: 10
      - time: 0.1
        value: 1
        inSlope: -30.000002
        outSlope: -30.000002
        tangentMode: 10
      - time: 0.18333334
        value: 1
        inSlope: 0
        outSlope: 0
        tangentMode: 10
      m_PreInfinity: 2
      m_PostInfinity: 2
      m_RotationOrder: 4
    attribute: m_Size.x
    path: Hitboxes/Box1
    classID: 61
    script: {fileID: 0}
  - curve:
      serializedVersion: 2
      m_Curve:
      - time: 0
        value: 1
        inSlope: 7.4999995
        outSlope: 7.4999995
        tangentMode: 10
      - time: 0.033333335
        value: 1.25
        inSlope: 3.7499998
        outSlope: 3.7499998
        tangentMode: 10
      - time: 0.05
        value: 1.25
        inSlope: 0
        outSlope: 0
        tangentMode: 10
      - time: 0.06666667
        value: 1.25
        inSlope: 0
        outSlope: 0
        tangentMode: 10
      - time: 0.083333336
        value: 1.25
        inSlope: -7.5000005
        outSlope: -7.5000005
        tangentMode: 10
      - time: 0.1
        value: 1
        inSlope: -7.5000005
        outSlope: -7.5000005
        tangentMode: 10
      - time: 0.18333334
        value: 1
        inSlope: 0
        outSlope: 0
        tangentMode: 10
      m_PreInfinity: 2
      m_PostInfinity: 2
      m_RotationOrder: 4
    attribute: m_Size.y
    path: Hitboxes/Box1
    classID: 61
    script: {fileID: 0}
  m_EulerEditorCurves: []
  m_HasGenericRootTransform: 0
  m_HasMotionFloatCurves: 0
  m_GenerateMotionCurves: 0
  m_Events: []
