%YAML 1.1
%TAG !u! tag:unity3d.com,2011:
--- !u!74 &7400000
AnimationClip:
  m_ObjectHideFlags: 0
  m_PrefabParentObject: {fileID: 0}
  m_PrefabInternal: {fileID: 0}
  m_Name: Walk Forward
  serializedVersion: 6
  m_Legacy: 0
  m_Compressed: 0
  m_UseHighQualityCurve: 1
  m_RotationCurves: []
  m_CompressedRotationCurves: []
  m_EulerCurves: []
  m_PositionCurves: []
  m_ScaleCurves: []
  m_FloatCurves: []
  m_PPtrCurves:
  - curve:
    - time: 0
      value: {fileID: 21300000, guid: be001384f0caa6c40bcb16998a7a5d3e, type: 3}
    - time: 0.033333335
      value: {fileID: 21300000, guid: 25169bd07e80ef841816dd3cd256e8e5, type: 3}
    - time: 0.06666667
      value: {fileID: 21300000, guid: f1acc393fe390de448245b956c8c4a92, type: 3}
    - time: 0.1
      value: {fileID: 21300000, guid: ec2f6cedc2fc9cf4b964b5e85d0bd005, type: 3}
    - time: 0.13333334
      value: {fileID: 21300000, guid: 303e30ed7e311c84486936af8e466cb9, type: 3}
    - time: 0.16666667
      value: {fileID: 21300000, guid: 491e738bf4f9bb04f8994414da7ad61e, type: 3}
    - time: 0.2
      value: {fileID: 21300000, guid: abfaf12bf072078499d79fbe63a4187e, type: 3}
    - time: 0.23333333
      value: {fileID: 21300000, guid: b7b44738af4172941a76f51b86da7f47, type: 3}
    - time: 0.26666668
      value: {fileID: 21300000, guid: b52f75f864105f14ea78b61ee09e83e1, type: 3}
    - time: 0.3
      value: {fileID: 21300000, guid: 995c6d93bca8cb2478958c9016c1df27, type: 3}
    - time: 0.33333334
      value: {fileID: 21300000, guid: 85ae33a7a8e113f4ebd5bd4db0865831, type: 3}
    - time: 0.36666667
      value: {fileID: 21300000, guid: 382d3c8fbd8d3814483c6a336a931aa8, type: 3}
    - time: 0.4
      value: {fileID: 21300000, guid: 0b03345210a477f4a8b002a8d3e1beea, type: 3}
    - time: 0.43333334
      value: {fileID: 21300000, guid: d916aeff55bb47343af05e65913d538c, type: 3}
    - time: 0.46666667
      value: {fileID: 21300000, guid: b54fb522f7d1fdd43969b26a783b2435, type: 3}
    - time: 0.5
      value: {fileID: 21300000, guid: d3bda52e935f2ce41b91eca0a92a34cf, type: 3}
    - time: 0.53333336
      value: {fileID: 21300000, guid: ecf4eb465bfbc784e96c1bf353a0658c, type: 3}
    - time: 0.56666666
      value: {fileID: 21300000, guid: 80c701fb03ea6f84b817e71b5051a246, type: 3}
    - time: 0.6
      value: {fileID: 21300000, guid: 729aac29d98588e47a399bb2ba181d2e, type: 3}
    - time: 0.6333333
      value: {fileID: 21300000, guid: 15136e5ddfa78574e833c6851492bea9, type: 3}
    - time: 0.6666667
      value: {fileID: 21300000, guid: 0211846ac70769a448b90d32411679db, type: 3}
    - time: 0.7
      value: {fileID: 21300000, guid: f33af10603568644f8a746b1ab847837, type: 3}
    - time: 0.73333335
      value: {fileID: 21300000, guid: a43cfe4ac94d9164e91f4f86cd4ed0d0, type: 3}
    - time: 0.76666665
      value: {fileID: 21300000, guid: f664f8b41eaea214094a98423d362713, type: 3}
    - time: 0.8
      value: {fileID: 21300000, guid: 215cc6d25ea312d4c9d0648ed5c2fc52, type: 3}
    - time: 0.8333333
      value: {fileID: 21300000, guid: 88147acf377e2df45b2a818975caa85e, type: 3}
    - time: 0.8666667
      value: {fileID: 21300000, guid: 9118dda530d09714c931fc145584af60, type: 3}
    - time: 0.9
      value: {fileID: 21300000, guid: 4bb3cd039512cbb4b879ab6c69dd93c4, type: 3}
    - time: 0.93333334
      value: {fileID: 21300000, guid: 076de6f282c8ad348988870ebde1eb4d, type: 3}
    - time: 0.96666664
      value: {fileID: 21300000, guid: 3c080bf197923484eb0a52706fbc8b2d, type: 3}
    - time: 1
      value: {fileID: 21300000, guid: 1b8764a0d88e2294eb76b173cb4552fc, type: 3}
    attribute: m_Sprite
    path: 
    classID: 212
    script: {fileID: 0}
  m_SampleRate: 60
  m_WrapMode: 0
  m_Bounds:
    m_Center: {x: 0, y: 0, z: 0}
    m_Extent: {x: 0, y: 0, z: 0}
  m_ClipBindingConstant:
    genericBindings:
    - path: 0
      attribute: 0
      script: {fileID: 0}
      classID: 212
      customType: 23
      isPPtrCurve: 1
    pptrCurveMapping:
    - {fileID: 21300000, guid: be001384f0caa6c40bcb16998a7a5d3e, type: 3}
    - {fileID: 21300000, guid: 25169bd07e80ef841816dd3cd256e8e5, type: 3}
    - {fileID: 21300000, guid: f1acc393fe390de448245b956c8c4a92, type: 3}
    - {fileID: 21300000, guid: ec2f6cedc2fc9cf4b964b5e85d0bd005, type: 3}
    - {fileID: 21300000, guid: 303e30ed7e311c84486936af8e466cb9, type: 3}
    - {fileID: 21300000, guid: 491e738bf4f9bb04f8994414da7ad61e, type: 3}
    - {fileID: 21300000, guid: abfaf12bf072078499d79fbe63a4187e, type: 3}
    - {fileID: 21300000, guid: b7b44738af4172941a76f51b86da7f47, type: 3}
    - {fileID: 21300000, guid: b52f75f864105f14ea78b61ee09e83e1, type: 3}
    - {fileID: 21300000, guid: 995c6d93bca8cb2478958c9016c1df27, type: 3}
    - {fileID: 21300000, guid: 85ae33a7a8e113f4ebd5bd4db0865831, type: 3}
    - {fileID: 21300000, guid: 382d3c8fbd8d3814483c6a336a931aa8, type: 3}
    - {fileID: 21300000, guid: 0b03345210a477f4a8b002a8d3e1beea, type: 3}
    - {fileID: 21300000, guid: d916aeff55bb47343af05e65913d538c, type: 3}
    - {fileID: 21300000, guid: b54fb522f7d1fdd43969b26a783b2435, type: 3}
    - {fileID: 21300000, guid: d3bda52e935f2ce41b91eca0a92a34cf, type: 3}
    - {fileID: 21300000, guid: ecf4eb465bfbc784e96c1bf353a0658c, type: 3}
    - {fileID: 21300000, guid: 80c701fb03ea6f84b817e71b5051a246, type: 3}
    - {fileID: 21300000, guid: 729aac29d98588e47a399bb2ba181d2e, type: 3}
    - {fileID: 21300000, guid: 15136e5ddfa78574e833c6851492bea9, type: 3}
    - {fileID: 21300000, guid: 0211846ac70769a448b90d32411679db, type: 3}
    - {fileID: 21300000, guid: f33af10603568644f8a746b1ab847837, type: 3}
    - {fileID: 21300000, guid: a43cfe4ac94d9164e91f4f86cd4ed0d0, type: 3}
    - {fileID: 21300000, guid: f664f8b41eaea214094a98423d362713, type: 3}
    - {fileID: 21300000, guid: 215cc6d25ea312d4c9d0648ed5c2fc52, type: 3}
    - {fileID: 21300000, guid: 88147acf377e2df45b2a818975caa85e, type: 3}
    - {fileID: 21300000, guid: 9118dda530d09714c931fc145584af60, type: 3}
    - {fileID: 21300000, guid: 4bb3cd039512cbb4b879ab6c69dd93c4, type: 3}
    - {fileID: 21300000, guid: 076de6f282c8ad348988870ebde1eb4d, type: 3}
    - {fileID: 21300000, guid: 3c080bf197923484eb0a52706fbc8b2d, type: 3}
    - {fileID: 21300000, guid: 1b8764a0d88e2294eb76b173cb4552fc, type: 3}
  m_AnimationClipSettings:
    serializedVersion: 2
    m_AdditiveReferencePoseClip: {fileID: 0}
    m_AdditiveReferencePoseTime: 0
    m_StartTime: 0
    m_StopTime: 1.0166667
    m_OrientationOffsetY: 0
    m_Level: 0
    m_CycleOffset: 0
    m_HasAdditiveReferencePose: 0
    m_LoopTime: 1
    m_LoopBlend: 0
    m_LoopBlendOrientation: 0
    m_LoopBlendPositionY: 0
    m_LoopBlendPositionXZ: 0
    m_KeepOriginalOrientation: 0
    m_KeepOriginalPositionY: 1
    m_KeepOriginalPositionXZ: 0
    m_HeightFromFeet: 0
    m_Mirror: 0
  m_EditorCurves: []
  m_EulerEditorCurves: []
  m_HasGenericRootTransform: 0
  m_HasMotionFloatCurves: 0
  m_GenerateMotionCurves: 0
  m_Events: []
